<?xml version="1.0" encoding="UTF-8" standalone="no"?>
<svg width="282px" height="170px" viewBox="0 0 282 170" version="1.1" xmlns="http://www.w3.org/2000/svg" xmlns:xlink="http://www.w3.org/1999/xlink" xmlns:sketch="http://www.bohemiancoding.com/sketch/ns">
    <!-- Generator: Sketch 3.5.2 (25235) - http://www.bohemiancoding.com/sketch -->
    <title>illustration-do-things-once</title>
    <desc>Created with Sketch.</desc>
    <defs>
        <path id="path-1" d="M0,0.359617341 L49.5281367,0.359617341 L49.5281367,36.9673706 L0,36.9673706"></path>
        <path d="M0,0.0737538558 L0,0.107669862 C0.00646019175,0.102286369 0.0129203835,0.0963645269 0.0188422259,0.0909810338 C0.0129203835,0.0850591914 0.00646019175,0.0796756982 0,0.0737538558 L0,0.0737538558 Z M83.4441434,0.0737538558 C83.4376832,0.0796756982 83.431223,0.0850591914 83.4253012,0.0909810338 C83.431223,0.0963645269 83.4376832,0.102286369 83.4441434,0.107669862 L83.4441434,0.0737538558 L83.4441434,0.0737538558 Z" id="path-3"></path>
        <path id="path-5" d="M51.5507151,0.458673614 C48.1451174,11.420004 37.9224023,19.3805752 25.840767,19.3805752 C13.7596701,19.3805752 3.53749333,11.4221574 0.131357232,0.460827011 C1.4465446,13.4861886 12.4751686,23.6873697 25.8413053,23.6873697 C39.2079804,23.6873697 50.2371428,13.4851119 51.5507151,0.458673614 L51.5507151,0.458673614 Z"></path>
        <path id="path-7" d="M0.269174656,0.269174656 L23.5700096,0.269174656 L23.5700096,11.6762582 L0.269174656,11.6762582 L0.269174656,0.269174656 Z"></path>
        <filter x="-50%" y="-50%" width="200%" height="200%" filterUnits="objectBoundingBox" id="filter-9">
            <feOffset dx="0" dy="3" in="SourceAlpha" result="shadowOffsetInner1"></feOffset>
            <feGaussianBlur stdDeviation="0" in="shadowOffsetInner1" result="shadowBlurInner1"></feGaussianBlur>
            <feComposite in="shadowBlurInner1" in2="SourceAlpha" operator="arithmetic" k2="-1" k3="1" result="shadowInnerInner1"></feComposite>
            <feColorMatrix values="0 0 0 0 0.294117647   0 0 0 0 0.592156863   0 0 0 0 0.803921569  0 0 0 0.7 0" in="shadowInnerInner1" type="matrix" result="shadowMatrixInner1"></feColorMatrix>
            <feMerge>
                <feMergeNode in="SourceGraphic"></feMergeNode>
                <feMergeNode in="shadowMatrixInner1"></feMergeNode>
            </feMerge>
        </filter>
    </defs>
    <g id="Flow-2-JIRA-adds-Bitbucket" stroke="none" stroke-width="1" fill="none" fill-rule="evenodd" sketch:type="MSPage">
        <g id="Easy-Connect-2.6.1----Bitbucket-linked-but-no-repos-added-Copy-10" sketch:type="MSArtboardGroup" transform="translate(-500.000000, -196.000000)">
            <g id="Overlay" sketch:type="MSLayerGroup" transform="translate(-1.000000, -70.000000)">
                <g id="Modal-600px-–-footer-+-Oval-49-Copy-+-Oval-49-Copy-2-+-Oval-49-Copy-3-Copy" transform="translate(342.000000, 205.000000)">
                    <g id="Modal-600px-–-footer">
                        <g id="Do-things-once-+-Keep-your-team-up-to-+-Imported-Layers" transform="translate(30.000000, 61.000000)">
                            <g id="illustration-do-things-once" transform="translate(129.000000, 0.000000)">
                                <path d="M30.7074448,112.91823 C30.9884631,127.292695 34.0199081,140.992608 39.2957314,153.515152 C41.7522193,148.260862 46.7847087,144.442351 52.7582326,143.694045 L52.7582326,143.086787 C42.0838425,139.135841 34.454356,128.852831 34.454356,116.821801 L34.454356,114.591958 C33.0422658,114.389 31.7545342,113.792509 30.7074448,112.91823 M251.326761,106.409048 L250.8121,106.409048 L250.8121,115.964749 C250.8121,123.53071 247.84095,130.619694 242.445613,135.925126 C239.579979,138.743385 236.221218,140.869326 232.566903,142.223813 L232.566903,143.334966 C237.298455,143.927689 241.440515,146.447163 244.178559,150.080483 C248.849278,137.855647 251.409129,124.588028 251.409129,110.721765 C251.409129,109.277912 251.381135,107.838904 251.326761,106.409048 M141.04752,0.359617341 C118.685566,0.359617341 97.8767502,7.0109231 80.4918358,18.4422324 C81.3575015,20.8685727 81.8290955,23.481182 81.8290955,26.2009227 C81.8290955,38.9651849 71.4443373,49.3499431 58.6800751,49.3499431 C55.7509165,49.3499431 52.9461165,48.8029802 50.3641932,47.8054189 C39.6876497,63.1639865 32.8156207,81.3553481 31.1052849,101.034169 C32.0737753,100.32947 33.2161526,99.849262 34.454356,99.6710684 L34.454356,91.6631224 C34.5910967,76.25395 47.1276372,63.8137741 62.4485202,63.8137741 C77.77048,63.8137741 90.3075588,76.2555651 90.4383777,91.5662195 L90.4426845,96.0646664 C90.4426845,96.074895 90.4432228,99.6710684 90.4432228,99.6710684 C94.0905394,100.195421 96.9028762,103.340996 96.9028762,107.131513 C96.9028762,110.922031 94.0905394,114.067606 90.4432228,114.59142 L90.4432228,116.821801 C90.4432228,128.852831 82.813198,139.135841 72.1388079,143.086787 L72.1388079,143.694045 C80.6253464,144.757285 87.2125886,152.017464 87.2125886,160.787174 L87.2125886,167.786792 L97.9795749,167.786792 L97.9795749,165.633395 C97.9795749,164.678901 98.3957189,163.819696 99.0562735,163.227512 C98.3957189,162.60195 97.9795749,161.742744 97.9795749,160.788251 L97.9795749,122.56545 C97.9795749,120.784052 99.4288112,119.335354 101.209671,119.335354 L124.016301,119.335354 C124.659628,118.872912 125.335795,118.454076 126.041033,118.082077 C127.105349,115.714955 129.324964,114.056839 131.895582,113.705297 L131.895582,106.95332 C131.895582,106.609314 132.057086,106.302455 132.308495,106.105419 C127.415977,105.751186 122.326562,81.8380643 141.999999,81.8380643 C149.647251,81.8380643 154.183738,77.8226999 154.183738,86.5784131 C154.183738,93.672242 153.045711,107.518586 151.276157,107.443756 L151.276157,113.705297 C153.846775,114.056839 156.066927,115.715493 157.131244,118.082077 C157.836482,118.454076 158.51211,118.872912 159.155437,119.335354 L180.34702,119.335354 C182.127879,119.335354 183.577116,120.784052 183.577116,122.56545 L183.577116,160.788251 C183.577116,161.742744 183.160972,162.60195 182.500417,163.193596 C183.160972,163.819696 183.577116,164.678901 183.577116,165.633395 L183.577116,167.786792 L198.112547,167.786792 L198.112547,160.428095 C198.112547,151.658385 204.700328,144.398206 213.186328,143.334966 L213.186328,142.210893 C202.500632,138.188885 194.823771,127.685152 194.823771,115.521149 L194.823771,106.409048 L192.132563,106.409048 C191.537687,106.409048 191.055864,105.927226 191.055864,105.33235 L191.055864,86.5784131 C189.131804,85.6233814 184.176837,82.327607 184.178452,73.7333985 C184.178452,72.3266918 184.311424,70.7789375 184.611823,69.0756003 C186.29901,59.5177466 198.723573,54.9127066 210.906957,54.9127066 C212.29859,54.9127066 213.684839,54.9730017 215.053323,55.0925152 C227.756752,56.2047449 236.245444,61.9090942 237.253234,69.8142155 L250.379348,105.33235 C251.906107,104.664258 241.133656,68.4936447 242.742782,68.4936447 C226.466329,28.4959058 187.043547,0.359617341 141.04752,0.359617341 L102.655504,52.059997" id="Fill-1" fill="#DEEFF9" sketch:type="MSShapeGroup"></path>
                                <path d="M235.080237,169 C245.54999,152.11122 251.594542,132.191309 251.594542,110.859617 C251.594542,49.8321525 202.122007,0.359617341 141.094542,0.359617341 C80.067077,0.359617341 30.5945418,49.8321525 30.5945418,110.859617 C30.5945418,132.191309 36.6390936,152.11122 47.1088469,169 L235.080237,169 Z" id="Oval-100" fill="#DEEFF9" sketch:type="MSShapeGroup"></path>
                                <path d="M0,168 L281,168 L281,170 L0,170 L0,168 Z" id="Fill-2" fill="#1F5081" sketch:type="MSShapeGroup"></path>
                                <g id="Group-6" transform="translate(116.821801, 105.516465)">
                                    <mask id="mask-2" sketch:name="Clip 4" fill="white">
                                        <use xlink:href="#path-1"></use>
                                    </mask>
                                    <g id="Clip-4"></g>
                                    <path d="M48.4514381,35.8912103 L1.07669862,35.8912103 L1.07669862,27.8159706 C1.07669862,18.8960609 8.30726824,11.6654913 17.227178,11.6654913 L32.3009587,11.6654913 C41.2208685,11.6654913 48.4514381,18.8960609 48.4514381,27.8159706 L48.4514381,35.8912103" id="Fill-3" fill="#4AC6C6" sketch:type="MSShapeGroup" mask="url(#mask-2)"></path>
                                    <path d="M48.4514381,36.9679089 L1.07669862,36.9679089 C0.481822635,36.9679089 0,36.485548 0,35.8912103 L0,27.8159706 C0,18.316797 7.72800438,10.5887926 17.227178,10.5887926 L32.3009587,10.5887926 C41.8001324,10.5887926 49.5281367,18.316797 49.5281367,27.8159706 L49.5281367,35.8912103 C49.5281367,36.485548 49.0457758,36.9679089 48.4514381,36.9679089 M2.15339725,34.8145117 L47.3747395,34.8145117 L47.3747395,27.8159706 C47.3747395,19.5038572 40.6125338,12.7421899 32.3009587,12.7421899 L17.227178,12.7421899 C8.91560296,12.7421899 2.15339725,19.5038572 2.15339725,27.8159706 L2.15339725,34.8145117" id="Fill-5" fill="#1F5081" sketch:type="MSShapeGroup" mask="url(#mask-2)"></path>
                                </g>
                                <path d="M156.312953,118.922978 C155.426292,116.536476 153.219598,114.892895 150.679127,114.727084 L141.585869,114.131131 L132.492073,114.727084 C129.952141,114.892895 127.745985,116.536476 126.859324,118.922978 L123.471492,128.038309 L130.215393,128.038309 C131.093979,128.038309 131.691009,130.316603 132.836078,131.118205 C133.981685,131.918731 141.585869,136.023644 141.585869,136.023644 C141.585869,136.023644 149.2595,132.0657 150.335122,131.118205 C151.410744,130.169095 152.078297,128.038309 152.956883,128.038309 L159.700247,128.038309 L156.312953,118.922978" id="Fill-7" fill="#4AC6C6" sketch:type="MSShapeGroup"></path>
                                <path d="M141.586408,137.100881 C141.410367,137.100881 141.234327,137.057813 141.074437,136.971677 C140.290601,136.547996 133.381964,132.813467 132.219129,132.000021 C131.497741,131.49505 131.013227,130.685372 130.585778,129.970983 C130.419428,129.692118 130.179862,129.292124 130.025356,129.115007 L123.471492,129.115007 C123.119411,129.115007 122.788865,128.942736 122.587522,128.653104 C122.386179,128.362933 122.339881,127.993626 122.462625,127.663618 L125.849919,118.547749 C126.883011,115.767713 129.462781,113.846883 132.422087,113.652 L141.515884,113.056586 L141.656393,113.056586 L150.749651,113.652 C153.709496,113.846883 156.289266,115.768251 157.32182,118.547749 L160.709113,127.663618 C160.831857,127.993626 160.785559,128.362933 160.584216,128.653104 C160.382874,128.942736 160.052327,129.115007 159.700247,129.115007 L153.11785,129.115007 C152.940733,129.294816 152.651639,129.761027 152.45245,130.081883 C152.065377,130.706906 151.626084,131.415912 151.047358,131.925729 C149.928668,132.911447 143.381264,136.309508 142.079535,136.980829 C141.924491,137.061043 141.755449,137.100881 141.586408,137.100881 M125.020861,126.96161 L130.215393,126.96161 C131.295322,126.96161 131.874586,127.929562 132.433931,128.865213 C132.751019,129.394411 133.109559,129.995208 133.453564,130.235851 C134.287468,130.818883 139.216056,133.516551 141.597175,134.805898 C144.545714,133.274294 148.952641,130.90125 149.623424,130.309604 C149.963123,130.010821 150.298514,129.46978 150.622601,128.947581 C151.227705,127.971015 151.853806,126.96161 152.956883,126.96161 L158.150878,126.96161 L155.303548,119.297131 C154.566009,117.312237 152.722701,115.939446 150.609142,115.801091 L141.586408,115.209983 L132.562596,115.801091 C130.449037,115.939446 128.606267,117.312237 127.86819,119.298208 L125.020861,126.96161" id="Fill-8" fill="#1F5081" sketch:type="MSShapeGroup"></path>
                                <path d="M132.97228,106.952781 L132.97228,119.873165 C132.97228,124.630019 141.585869,136.023644 141.585869,136.023644 C141.585869,136.023644 150.199458,124.630019 150.199458,119.873165 L150.199458,106.952781 L132.97228,106.952781" id="Fill-9" fill="#FFE1A4" sketch:type="MSShapeGroup"></path>
                                <path d="M141.585869,137.100881 C141.248324,137.100881 140.930698,136.942606 140.727202,136.673432 C139.823314,135.477758 131.895582,124.848051 131.895582,119.873703 L131.895582,106.95332 C131.895582,106.358982 132.377404,105.876621 132.97228,105.876621 L150.199458,105.876621 C150.793796,105.876621 151.276157,106.358982 151.276157,106.95332 L151.276157,119.873703 C151.276157,124.848051 143.348425,135.477758 142.444536,136.673432 C142.24104,136.942606 141.923414,137.100881 141.585869,137.100881 M134.048979,108.030018 L134.048979,119.873703 C134.048979,123.096262 138.889816,130.472724 141.585869,134.209407 C144.281923,130.471648 149.12276,123.094109 149.12276,119.873703 L149.12276,108.030018 L134.048979,108.030018" id="Fill-10" fill="#1F5081" sketch:type="MSShapeGroup"></path>
                                <path d="M149.12276,108.030018 L134.048979,108.030018 L134.048979,117.030142 C136.296587,117.698772 138.668016,118.078846 141.126119,118.120299 C141.257476,118.122453 141.388295,118.123529 141.519114,118.124068 L141.634859,118.124068 C144.234548,118.118684 146.745947,117.741301 149.12276,117.047908 L149.12276,108.030018" id="Fill-11" fill="#E8D2A0" sketch:type="MSShapeGroup"></path>
                                <path d="M143.263904,106.95332 L132.97228,106.95332 L132.97228,116.68506 C133.328129,116.807265 133.687208,116.922472 134.048979,117.030142 L134.048979,108.030018 L149.12276,108.030018 L149.12276,117.047908 C149.485069,116.942391 149.843609,116.829338 150.199458,116.709286 L150.199458,107.394766 C147.934084,107.284943 145.615414,107.128821 143.263904,106.95332" id="Fill-12" fill="#1F5081" sketch:type="MSShapeGroup"></path>
                                <g id="Imported-Layers-Copy-3" transform="translate(100.577116, 27.815195)" sketch:type="MSShapeGroup">
                                    <path d="M63.8952028,107.822686 L18.2051469,107.822686 L18.2051469,101.691293 C18.2051469,92.2356859 25.9074126,84.5708743 35.4079441,84.5708743 L46.6924056,84.5708743 C56.1935105,84.5708743 63.8952028,92.2356859 63.8952028,101.691293 L63.8952028,107.822686" id="Fill-1" fill="#55BBB6"></path>
                                    <path d="M63.8952028,108.856759 L18.2051469,108.856759 C17.6317203,108.856759 17.1666713,108.393937 17.1666713,107.822686 L17.1666713,100.072272 C17.1666713,90.9550785 24.6200699,83.5373717 33.7817063,83.5373717 L48.3192168,83.5373717 C57.4802797,83.5373717 64.9336783,90.9550785 64.9336783,100.072272 L64.9336783,107.822686 C64.9336783,108.393937 64.4686294,108.856759 63.8952028,108.856759 M19.2436224,106.789754 L62.8567273,106.789754 L62.8567273,100.072272 C62.8567273,92.0941571 56.3351469,85.6038063 48.3192168,85.6038063 L33.7817063,85.6038063 C25.7652028,85.6038063 19.2436224,92.0941571 19.2436224,100.072272 L19.2436224,106.789754" id="Fill-2" fill="#274971"></path>
                                    <path d="M36.5072028,88.9799529 C36.5072028,91.5908168 34.5328951,92.8600105 34.0735804,93.1202408 C34.1825315,93.3519372 41.0504615,102.138707 41.0504615,102.138707 C41.0504615,102.138707 47.9183916,93.3519372 48.0273427,93.1202408 C47.568028,92.8600105 45.5937203,91.5908168 45.5937203,88.9799529 C45.5937203,84.828822 49.3576923,84.5708743 49.3576923,84.5708743 L49.3576923,75.2693508 L32.7432308,75.2693508 L32.7432308,84.5708743 C32.7432308,84.5708743 36.5072028,84.828822 36.5072028,88.9799529" id="Fill-3" fill="#D19D73"></path>
                                    <path d="M41.0504615,103.17278 C40.7299161,103.17278 40.4271469,103.024974 40.2304615,102.773304 C33.2914266,93.8946545 33.1962378,93.6926335 33.1331608,93.5590942 C32.9032168,93.0705916 33.0895804,92.4890681 33.5592168,92.2219895 C33.878042,92.0410838 35.4687273,91.0355445 35.4687273,88.9799529 C35.4687273,85.8297958 32.7856643,85.6095131 32.6715524,85.6015236 C32.1267972,85.5644293 31.7047552,85.1135916 31.7047552,84.5708743 L31.7047552,75.2699215 C31.7047552,74.6992408 32.1698042,74.2364188 32.7432308,74.2364188 L49.3576923,74.2364188 C49.9311189,74.2364188 50.3955944,74.6992408 50.3955944,75.2699215 L50.3955944,84.5708743 C50.3955944,85.1135916 49.9735524,85.5644293 49.4287972,85.6015236 C49.1495385,85.6254921 46.6316224,85.9256702 46.6316224,88.9799529 C46.6316224,91.0355445 48.2223077,92.0410838 48.5411329,92.2219895 C49.0113427,92.4890681 49.1971329,93.0705916 48.9677622,93.5590942 C48.9041119,93.6926335 48.8089231,93.8946545 41.8698881,102.773304 C41.6732028,103.024974 41.3704336,103.17278 41.0504615,103.17278 M35.5323776,93.3456597 C36.6316364,94.7837749 39.0549371,97.8991204 41.0504615,100.455199 C43.0454126,97.8991204 45.4692867,94.7837749 46.567972,93.3456597 C45.4824755,92.3989005 44.5546713,90.9105654 44.5546713,88.9799529 C44.5546713,85.6403298 46.6625874,84.1845236 48.3192168,83.7142827 L48.3192168,76.3034241 L33.7817063,76.3034241 L33.7817063,83.7142827 C35.4377622,84.1845236 37.5456783,85.6403298 37.5456783,88.9799529 C37.5456783,90.9105654 36.6184476,92.3989005 35.5323776,93.3456597" id="Fill-4" fill="#274971"></path>
                                    <path d="M46.2778182,95.4217958 L35.8225315,95.4217958 C37.8897343,98.0948639 41.0504615,102.139277 41.0504615,102.139277 C41.0504615,102.139277 44.2106154,98.0948639 46.2778182,95.4217958" id="Fill-5" fill="#E9EAE7"></path>
                                    <path d="M41.0504615,103.17278 C40.7299161,103.17278 40.4271469,103.024974 40.2304615,102.773304 C40.2304615,102.773304 37.068014,98.727178 34.9996643,96.0518272 C34.7582517,95.7402356 34.7163916,95.3190733 34.8912867,94.9652513 C35.0656084,94.612 35.4274406,94.3882932 35.8225315,94.3882932 L46.2778182,94.3882932 C46.6734825,94.3882932 47.0347413,94.612 47.2090629,94.9652513 C47.383958,95.3190733 47.3420979,95.7402356 47.1006853,96.0518272 C45.0323357,98.727178 41.8698881,102.773304 41.8698881,102.773304 C41.6732028,103.024974 41.3704336,103.17278 41.0504615,103.17278 L41.0504615,103.17278 Z M37.9356084,96.4552984 C39.075007,97.9219476 40.2786294,99.4662094 41.0504615,100.454628 C41.8217203,99.4662094 43.0253427,97.9219476 44.1647413,96.4552984 L37.9356084,96.4552984 L37.9356084,96.4552984 Z" id="Fill-6" fill="#274971"></path>
                                    <path d="M18.0199301,46.1492304 L12.3825734,45.9375079 L12.4410629,44.3881099 L18.0784196,44.5998325 L18.0199301,46.1492304" id="Fill-7" fill="#274971"></path>
                                    <path d="M75.2960699,57.2512513 C76.9194406,55.4644503 77.9166294,53.1029738 77.9166294,50.5046649 C77.9166294,46.1155602 75.0925035,42.3930105 71.1582238,41.010822 L71.1536364,30.6107382 C70.8755245,14.2984031 57.5100979,1.15791099 41.0527552,1.15791099 C24.5954126,1.15791099 11.2305594,14.2984031 10.9524476,30.6107382 L10.9392587,40.7089319 C6.47570629,41.7601257 3.15097902,45.7417644 3.15097902,50.5046649 C3.15097902,53.1862932 4.21067133,55.616822 5.92693706,57.4218848 C3.70662937,59.2537696 1.58839161,61.5667382 1.58839161,65.7481152 C1.58839161,72.2013717 6.95509091,77.1206387 16.1310629,77.1206387 L63.8980699,77.1206387 C77.1379161,77.1206387 80.5125315,72.987199 80.5125315,65.7481152 C80.5125315,61.8480838 77.7996503,59.4432356 75.2960699,57.2512513 L50.6318688,11.4152733" id="Fill-8" fill="#3572B0"></path>
                                    <path d="M63.8980699,78.262 L16.1310629,78.262 C6.74693706,78.262 0.441538462,73.2325916 0.441538462,65.7475445 C0.441538462,61.6723141 2.28281119,59.1647435 4.31904895,57.3014712 C2.81896503,55.3514555 2.00412587,52.9785654 2.00412587,50.5046649 C2.00412587,45.5922461 5.16370629,41.3298325 9.79240559,39.8432094 L9.79240559,30.6113089 C9.79240559,30.5451099 9.79813986,30.4800524 9.80903497,30.4172775 C10.1909371,13.6381257 24.1693566,0.0165497382 41.0533287,0.0165497382 C57.9952168,0.0165497382 72.0126294,13.7328586 72.3004895,30.5913351 L72.3045035,40.2346963 C76.3792727,42.007801 79.0634825,46.0368063 79.0634825,50.5046649 C79.0634825,52.893534 78.2950909,55.2042199 76.8793007,57.1228482 C79.1861958,59.1892827 81.6588112,61.7824555 81.6588112,65.7475445 C81.6588112,74.6358953 76.5128811,78.262 63.8980699,78.262 M12.0861119,30.7830838 L12.0861119,40.7089319 C12.0861119,41.2379529 11.7208392,41.6979215 11.2036084,41.8194764 C7.13744056,42.7770785 4.29783217,46.3483979 4.29783217,50.5046649 C4.29783217,52.7896702 5.17173427,54.9673874 6.76012587,56.637199 C6.97802797,56.8671832 7.09041958,57.1753508 7.0714965,57.4909372 C7.05257343,57.8059529 6.90290909,58.0992827 6.65862937,58.300733 C4.30356643,60.2433298 2.73524476,62.2538377 2.73524476,65.7475445 C2.73524476,71.9628272 7.99356643,75.9792775 16.1310629,75.9792775 L63.8980699,75.9792775 C76.7778042,75.9792775 79.3651049,72.0638377 79.3651049,65.7475445 C79.3651049,62.3348743 76.9114126,60.1862618 74.5385734,58.1084136 C74.3086294,57.9069634 74.1692867,57.621623 74.1515105,57.3168796 C74.1337343,57.0115654 74.2398182,56.7125288 74.4451049,56.4865393 C75.9446154,54.8355602 76.7697762,52.7109162 76.7697762,50.5046649 C76.7697762,46.7296126 74.3613846,43.3466178 70.7763217,42.0871257 C70.3181538,41.9261937 70.0113706,41.4953298 70.0113706,41.0113927 L70.0067832,30.6118796 C69.7401399,15.0089005 56.752028,2.29927225 41.0533287,2.29927225 C25.3546294,2.29927225 12.3659441,15.0089005 12.0993007,30.630712 L12.0861119,30.7830838" id="Fill-9" fill="#274971"></path>
                                    <path d="M41.0527552,4.25841885 C57.5100979,4.25841885 70.8755245,17.398911 71.1536364,33.7112461 L71.1536364,30.6107382 C70.8755245,14.2984031 57.5100979,1.15791099 41.0527552,1.15791099 C24.5954126,1.15791099 11.2305594,14.2984031 10.9524476,30.6107382 L10.9392587,30.6107382 L10.9392587,33.7112461 L10.9524476,33.7112461 C11.2305594,17.398911 24.5954126,4.25841885 41.0527552,4.25841885" id="Fill-10" fill="#4B97CD"></path>
                                    <path d="M63.8980699,78.262 L16.1310629,78.262 C6.74693706,78.262 0.441538462,73.2325916 0.441538462,65.7475445 C0.441538462,61.6723141 2.28281119,59.1647435 4.31904895,57.3014712 C2.81896503,55.3514555 2.00412587,52.9785654 2.00412587,50.5046649 C2.00412587,45.5922461 5.16370629,41.3298325 9.79240559,39.8432094 L9.79240559,30.6113089 C9.79240559,30.5451099 9.79813986,30.4800524 9.80903497,30.4172775 C10.1909371,13.6381257 24.1693566,0.0165497382 41.0533287,0.0165497382 C57.9952168,0.0165497382 72.0126294,13.7328586 72.3004895,30.5913351 L72.3045035,40.2346963 C76.3792727,42.007801 79.0634825,46.0368063 79.0634825,50.5046649 C79.0634825,52.893534 78.2950909,55.2042199 76.8793007,57.1228482 C79.1861958,59.1892827 81.6588112,61.7824555 81.6588112,65.7475445 C81.6588112,74.6358953 76.5128811,78.262 63.8980699,78.262 M12.0861119,30.7830838 L12.0861119,40.7089319 C12.0861119,41.2379529 11.7208392,41.6979215 11.2036084,41.8194764 C7.13744056,42.7770785 4.29783217,46.3483979 4.29783217,50.5046649 C4.29783217,52.7896702 5.17173427,54.9673874 6.76012587,56.637199 C6.97802797,56.8671832 7.09041958,57.1753508 7.0714965,57.4909372 C7.05257343,57.8059529 6.90290909,58.0992827 6.65862937,58.300733 C4.30356643,60.2433298 2.73524476,62.2538377 2.73524476,65.7475445 C2.73524476,71.9628272 7.99356643,75.9792775 16.1310629,75.9792775 L63.8980699,75.9792775 C76.7778042,75.9792775 79.3651049,72.0638377 79.3651049,65.7475445 C79.3651049,62.3348743 76.9114126,60.1862618 74.5385734,58.1084136 C74.3086294,57.9069634 74.1692867,57.621623 74.1515105,57.3168796 C74.1337343,57.0115654 74.2398182,56.7125288 74.4451049,56.4865393 C75.9446154,54.8355602 76.7697762,52.7109162 76.7697762,50.5046649 C76.7697762,46.7296126 74.3613846,43.3466178 70.7763217,42.0871257 C70.3181538,41.9261937 70.0113706,41.4953298 70.0113706,41.0113927 L70.0067832,30.6118796 C69.7401399,15.0089005 56.752028,2.29927225 41.0533287,2.29927225 C25.3546294,2.29927225 12.3659441,15.0089005 12.0993007,30.630712 L12.0861119,30.7830838" id="Fill-11" fill="#274971"></path>
                                    <path d="M33.2358042,24.891377 C33.9554545,25.9157487 43.1423217,38.2532932 67.0129231,38.2532932 C67.6465594,38.2532932 68.1597762,38.764623 68.1597762,39.3946545 L68.1597762,45.5956702 L71.1587972,45.5956702 L71.1576503,42.2309372 C71.0320699,42.1807173 70.9047692,42.1322094 70.7763217,42.0871257 C70.3181538,41.9261937 70.0113706,41.4953298 70.0113706,41.0113927 L70.0067832,30.6118796 C69.9981818,30.1325079 69.9781119,29.6554188 69.9465734,29.1817539 C66.2324895,29.649712 62.7426154,29.8460262 59.4998881,29.8460262 C45.5702098,29.8460262 36.2021399,26.2204921 33.2358042,24.891377" id="Fill-12" fill="#316BA7"></path>
                                    <path d="M71.1542098,29.0213927 C70.7493706,29.0778901 70.3462517,29.131534 69.9465734,29.1817539 C69.9781119,29.6554188 69.9981818,30.1325079 70.0067832,30.6118796 L70.0113706,41.0113927 C70.0113706,41.4953298 70.3181538,41.9261937 70.7763217,42.0871257 C70.9047692,42.1322094 71.0320699,42.1807173 71.1576503,42.2309372 L71.1542098,29.0213927" id="Fill-13" fill="#274A71"></path>
                                    <path d="M32.2265734,25.4437958 C32.2265734,25.4437958 24.1791049,34.227712 15.0925874,35.003267 L15.0925874,61.0594031 C15.0925874,75.2276911 26.3753287,87.0807277 40.6089231,87.3169895 C55.1498741,87.5583874 67.0129231,75.9005236 67.0129231,61.4851309 L67.0129231,39.3952251 C41.2259301,39.3952251 32.2265734,25.4437958 32.2265734,25.4437958" id="Fill-14" fill="#D19D73"></path>
                                    <path d="M41.0579161,88.4623455 C40.9019441,88.4623455 40.7465455,88.4606335 40.59,88.4583508 C25.8982378,88.2140995 13.9457343,75.9233508 13.9457343,61.0594031 L13.9457343,35.0026963 C13.9457343,34.4103298 14.4016084,33.9161204 14.9945315,33.8653298 C23.5345734,33.1371414 31.3016364,24.7595497 31.3796224,24.6745183 C31.6193147,24.4131466 31.9702517,24.278466 32.3229091,24.3064293 C32.6772867,24.3366754 32.9978322,24.5284241 33.1905035,24.825178 C33.2931469,24.9821152 42.2552308,38.2532932 67.0129231,38.2532932 C67.6465594,38.2532932 68.1597762,38.764623 68.1597762,39.3946545 L68.1597762,61.4851309 C68.1597762,68.7755759 65.2828951,75.6071937 60.058979,80.7204921 C54.9468811,85.7230785 48.2148531,88.4623455 41.0579161,88.4623455 M16.2394406,36.0173665 L16.2394406,61.0594031 C16.2394406,74.6855445 27.1798462,85.9524921 40.6284196,86.1756283 C47.3581538,86.3028901 53.6698601,83.7724921 58.4505175,79.092911 C63.2323217,74.4127592 65.8660699,68.1592408 65.8660699,61.4851309 L65.8660699,40.5274555 C44.6005455,40.1918953 34.8706434,30.5650838 32.1095944,27.1935026 C29.7642797,29.4699476 23.4686294,34.9519058 16.2394406,36.0173665" id="Fill-15" fill="#274971"></path>
                                    <path d="M32.1095944,27.1935026 C29.7642797,29.4699476 23.4686294,34.9519058 16.2394406,36.0173665 L16.2394406,38.7126911 C20.1238322,37.8572408 30.3342657,33.7837225 33.6045175,28.8473351 C32.9737483,28.2087435 32.4794545,27.644911 32.1095944,27.1935026" id="Fill-16" fill="#BE9174"></path>
                                    <path d="M32.2122378,25.4592042 C31.8309091,25.8700942 23.956042,34.2465445 15.0925874,35.003267 L15.0925874,38.8781885 C15.3546434,38.8781885 15.7462937,38.8211204 16.2394406,38.7126911 L16.2394406,36.0173665 C23.4686294,34.9519058 29.7642797,29.4699476 32.1095944,27.1935026 C32.4794545,27.644911 32.9737483,28.2087435 33.6045175,28.8473351 C33.8958182,28.407911 34.1314965,27.9616387 34.3035245,27.5102304 C32.4467692,25.8575393 32.2196923,25.5248325 32.2122378,25.4592042 M32.2237063,25.4432251 C32.2191189,25.4432251 32.2105175,25.4455079 32.2122378,25.4592042 C32.2214126,25.4489319 32.2265734,25.4437958 32.2265734,25.4437958 C32.2265734,25.4437958 32.2254266,25.4432251 32.2237063,25.4432251" id="Fill-17" fill="#274A71"></path>
                                    <path d="M32.2265734,53.3466545 C32.2265734,54.773356 31.0642378,55.9301257 29.6300979,55.9301257 C28.1965315,55.9301257 27.0341958,54.773356 27.0341958,53.3466545 C27.0341958,51.9193822 28.1965315,50.7626126 29.6300979,50.7626126 C31.0642378,50.7626126 32.2265734,51.9193822 32.2265734,53.3466545" id="Fill-18" fill="#274971"></path>
                                    <path d="M55.0713147,53.3466545 C55.0713147,54.773356 53.908979,55.9301257 52.4754126,55.9301257 C51.0418462,55.9301257 49.8795105,54.773356 49.8795105,53.3466545 C49.8795105,51.9193822 51.0418462,50.7626126 52.4754126,50.7626126 C53.908979,50.7626126 55.0713147,51.9193822 55.0713147,53.3466545" id="Fill-19" fill="#274971"></path>
                                    <path d="M33.745007,48.8040366 C33.1962378,48.8040366 32.7111189,48.4108377 32.6153566,47.8544241 C32.4117902,46.6685497 31.0894685,45.7035288 29.6685175,45.7035288 C28.195958,45.7035288 26.8403776,46.6651257 26.6465594,47.8458639 C26.5450629,48.4679058 25.9561538,48.8936335 25.3305455,48.7886283 C24.7049371,48.6870471 24.2811748,48.1009581 24.3826713,47.4789162 C24.7553986,45.2030419 27.0772028,43.4208063 29.6685175,43.4208063 C32.1984755,43.4208063 34.4858741,45.1990471 34.8763776,47.470356 C34.983035,48.0912565 34.5632867,48.6813403 33.9393986,48.7874869 C33.874028,48.7989005 33.8086573,48.8040366 33.745007,48.8040366" id="Fill-20" fill="#274971"></path>
                                    <path d="M56.5903217,48.8040366 C56.0415524,48.8040366 55.557007,48.4114084 55.4606713,47.8555654 C55.255958,46.6685497 53.9342098,45.7035288 52.5132587,45.7035288 C51.0406993,45.7035288 49.6856923,46.6651257 49.4918741,47.8458639 C49.3903776,48.4679058 48.8008951,48.8936335 48.1758601,48.7886283 C47.5502517,48.6870471 47.1264895,48.1009581 47.227986,47.4789162 C47.6007133,45.2030419 49.9225175,43.4208063 52.5132587,43.4208063 C55.0426434,43.4208063 57.3306154,45.1990471 57.7216923,47.4697853 C57.8289231,48.0912565 57.4091748,48.6807696 56.7847133,48.7874869 C56.7193427,48.7989005 56.653972,48.8040366 56.5903217,48.8040366" id="Fill-21" fill="#274971"></path>
                                    <path d="M41.0527552,76.9032094 C44.0787273,76.9032094 46.6012308,74.7563089 47.1654825,71.9091832 C47.2899161,71.2814346 46.7835804,70.7021937 46.1401958,70.7021937 L35.9653147,70.7021937 C35.3225035,70.7021937 34.8161678,71.2814346 34.9406014,71.9091832 C35.5048531,74.7563089 38.0267832,76.9032094 41.0527552,76.9032094" id="Fill-22" fill="#274971"></path>
                                    <path d="M44.6877063,63.0596387 L37.4183776,63.0596387 C36.7847413,63.0596387 36.2715245,62.5488796 36.2715245,61.9182775 C36.2715245,61.2882461 36.7847413,60.7769162 37.4183776,60.7769162 L44.6877063,60.7769162 C45.3207692,60.7769162 45.8345594,61.2882461 45.8345594,61.9182775 C45.8345594,62.5488796 45.3207692,63.0596387 44.6877063,63.0596387" id="Fill-23" fill="#274971"></path>
                                    <path d="M15.0925874,44.4331937 C11.6514545,44.4331937 8.86230769,47.2089843 8.86230769,50.6336387 C8.86230769,54.0582932 11.6514545,56.8340838 15.0925874,56.8340838 L15.0925874,44.4331937" id="Fill-24" fill="#D19D73"></path>
                                    <path d="M15.0925874,57.9760157 C11.0252727,57.9760157 7.71545455,54.6820471 7.71545455,50.6336387 C7.71545455,46.5852304 11.0252727,43.2912618 15.0925874,43.2912618 C15.7262238,43.2912618 16.2394406,43.8025916 16.2394406,44.432623 L16.2394406,56.8346545 C16.2394406,57.4646859 15.7262238,57.9760157 15.0925874,57.9760157 L15.0925874,57.9760157 Z M13.9457343,45.7040995 C11.6933147,46.2228482 10.0091608,48.2356387 10.0091608,50.6336387 C10.0091608,53.0310681 11.6933147,55.0444293 13.9457343,55.563178 L13.9457343,45.7040995 L13.9457343,45.7040995 Z" id="Fill-25" fill="#274971"></path>
                                    <path d="M67.0129231,44.5621675 C70.4540559,44.5621675 73.2437762,47.3385288 73.2437762,50.7626126 C73.2437762,54.187267 70.4540559,56.9636283 67.0129231,56.9636283 L67.0129231,44.5621675" id="Fill-26" fill="#D19D73"></path>
                                    <path d="M67.0129231,58.1044188 C66.3798601,58.1044188 65.8660699,57.5936597 65.8660699,56.9630576 L65.8660699,44.5621675 C65.8660699,43.9315654 66.3798601,43.4208063 67.0129231,43.4208063 C71.0808112,43.4208063 74.3900559,46.7142042 74.3900559,50.7626126 C74.3900559,54.8110209 71.0808112,58.1044188 67.0129231,58.1044188 L67.0129231,58.1044188 Z M68.1597762,45.8330733 L68.1597762,55.6921518 C70.4127692,55.1734031 72.0963497,53.1600419 72.0963497,50.7626126 C72.0963497,48.3651832 70.4127692,46.3523927 68.1597762,45.8330733 L68.1597762,45.8330733 Z" id="Fill-27" fill="#274971"></path>
                                </g>
                                <g id="Group-40" transform="translate(99.056273, 163.119842)">
                                    <mask id="mask-4" sketch:name="Clip 39" fill="white">
                                        <use xlink:href="#path-3"></use>
                                    </mask>
                                    <g id="Clip-39"></g>
                                    <path d="M0,0.0737538558 L83.4441434,0.0737538558 L83.4441434,0.107669862 L0,0.107669862 L0,0.0737538558 Z" id="Fill-38" fill="#B8CFE1" sketch:type="MSShapeGroup" mask="url(#mask-4)"></path>
                                </g>
                                <rect id="Rectangle-723" stroke="#205081" stroke-width="2" fill="#F5F5F5" sketch:type="MSShapeGroup" x="100" y="121" width="82" height="43" rx="3"></rect>
                                <path d="M100,166.5 C100,165.119288 101.127972,164 102.498871,164 L179.501129,164 C180.881218,164 182,165.109662 182,166.5 L182,169 L169.226562,169 L100,169 L100,166.5 Z" id="Rectangle-723" stroke="#205081" stroke-width="2" fill="#F5F5F5" sketch:type="MSShapeGroup"></path>
                                <circle id="Oval-122" fill="#CAD4DE" sketch:type="MSShapeGroup" cx="141.5" cy="142.5" r="5.5"></circle>
                                <path d="M275.832928,163.629152 C272.889234,163.629152 270.494118,161.234036 270.494118,158.290342 C270.494118,155.347187 272.889234,152.951532 275.832928,152.951532 C278.776622,152.951532 281.171738,155.347187 281.171738,158.290342 C281.171738,161.234036 278.776622,163.629152 275.832928,163.629152 M275.832928,155.104929 C274.076833,155.104929 272.647515,156.534247 272.647515,158.290342 C272.647515,160.046976 274.076833,161.475755 275.832928,161.475755 C277.589562,161.475755 279.018341,160.046976 279.018341,158.290342 C279.018341,156.534247 277.589562,155.104929 275.832928,155.104929" id="Fill-46" fill="#1F5081" sketch:type="MSShapeGroup"></path>
                                <path d="M254,156 C254,160.40416 255.491571,164.612673 258,168 L272,168 C274.508429,164.612673 276,160.40416 276,156 L276,150 L254,150 L254,156 Z" id="Fill-47" fill="#FF4E4A" sketch:type="MSShapeGroup"></path>
                                <rect id="Rectangle-729" opacity="0.1" fill="#FFFFFF" sketch:type="MSShapeGroup" x="255" y="152" width="20" height="1"></rect>
                                <path d="M272,170 L258,170 C257.946553,170 257.641545,169.854375 257,170 C254.576584,166.064453 253,161.61738 253,157 L253,151 C253,150.471046 253.475579,150 254,150 L276,150 C276.524421,150 277,150.471046 277,151 L277,157 C277,161.61738 275.423416,166.064453 273,170 C272.358987,169.854375 272.053447,170 272,170 M259,168 L271,168 C273.685428,164.857305 275,160.987651 275,157 L275,152 L255,152 L255,157 C255,160.987651 256.314572,164.857305 259,168" id="Fill-48" fill="#1F5081" sketch:type="MSShapeGroup"></path>
                                <path d="M58.6800751,5.2052995 C47.1028731,5.2052995 37.6844519,14.6237207 37.6844519,26.2009227 C37.6844519,35.3151765 43.5223118,43.0921707 51.6551549,45.9879517 C52.233342,45.1906563 52.8255263,44.3971295 53.4247091,43.6159846 C45.9427303,41.3613777 40.4935586,34.4172099 40.4935586,26.2003843 C40.4935586,16.1564012 48.6360919,8.01440621 58.6800751,8.01440621 C67.0605588,8.01440621 74.1167032,13.6821478 76.2243408,21.3940017 C77.0210978,20.8147378 77.8286218,20.2440875 78.6415292,19.6858193 C75.8937943,11.2881084 67.9838279,5.2052995 58.6800751,5.2052995" id="Fill-51" fill="#FDFDFD" sketch:type="MSShapeGroup"></path>
                                <path d="M78.6415292,19.6858193 C77.8286218,20.2440875 77.0210978,20.8147378 76.2243408,21.3940017 C76.6431766,22.9250671 76.8665915,24.536885 76.8665915,26.2003843 C76.8665915,36.2449058 68.7240582,44.3869008 58.6800751,44.3869008 C56.8523791,44.3869008 55.0887468,44.1177262 53.4247091,43.6159846 C52.8255263,44.3971295 52.233342,45.1906563 51.6551549,45.9879517 C53.8526968,46.7701732 56.2176653,47.1965459 58.6800751,47.1965459 C70.257277,47.1965459 79.6756982,37.7781247 79.6756982,26.2009227 C79.6756982,23.9274735 79.3128508,21.7380069 78.6415292,19.6858193" id="Fill-52" fill="#E2F0F9" sketch:type="MSShapeGroup"></path>
                                <path d="M58.6800751,3.05190225 C45.9158129,3.05190225 35.5310546,13.4366605 35.5310546,26.2009227 C35.5310546,36.0360263 41.6956926,44.4579629 50.3641932,47.8054189 C50.7884125,47.1949308 51.2185536,46.5892879 51.6551549,45.9879517 C43.5223118,43.0921707 37.6844519,35.3151765 37.6844519,26.2009227 C37.6844519,14.6237207 47.1028731,5.2052995 58.6800751,5.2052995 C67.9838279,5.2052995 75.8937943,11.2881084 78.6415292,19.6858193 C79.2541707,19.2648301 79.8700423,18.8513779 80.4918358,18.4422324 C77.2951176,9.48194644 68.7245965,3.05190225 58.6800751,3.05190225" id="Fill-53" fill="#D2DCE6" sketch:type="MSShapeGroup"></path>
                                <path d="M80.4918358,18.4422324 C79.8700423,18.8513779 79.2541707,19.2648301 78.6415292,19.6858193 C79.3128508,21.7380069 79.6756982,23.9274735 79.6756982,26.2009227 C79.6756982,37.7781247 70.257277,47.1965459 58.6800751,47.1965459 C56.2176653,47.1965459 53.8526968,46.7701732 51.6551549,45.9879517 C51.2185536,46.5892879 50.7884125,47.1949308 50.3641932,47.8054189 C52.9461165,48.8029802 55.7509165,49.3499431 58.6800751,49.3499431 C71.4443373,49.3499431 81.8290955,38.9651849 81.8290955,26.2009227 C81.8290955,23.481182 81.3575015,20.8685727 80.4918358,18.4422324" id="Fill-54" fill="#B8CFE1" sketch:type="MSShapeGroup"></path>
                                <path d="M58.6800751,8.01440621 C48.6360919,8.01440621 40.4935586,16.1564012 40.4935586,26.2003843 C40.4935586,34.4172099 45.9427303,41.3613777 53.4247091,43.6159846 C56.5918181,39.4868454 60.0464056,35.5854279 63.755094,31.9461866 C63.6770334,31.9004269 63.6038179,31.8444385 63.5370626,31.7776832 L57.9188491,26.1594698 C57.7169681,25.9575888 57.6033764,25.683569 57.6033764,25.3982439 L57.6033764,18.1746728 C57.6033764,17.5797968 58.0851991,17.0979742 58.6800751,17.0979742 C59.2744127,17.0979742 59.7567737,17.5797968 59.7567737,18.1746728 L59.7567737,24.9519523 L65.0600528,30.2552314 C65.1364984,30.331677 65.1989469,30.4172745 65.2479367,30.5082555 C68.7030626,27.2420903 72.3697597,24.1961098 76.2243408,21.3940017 C74.1167032,13.6821478 67.0605588,8.01440621 58.6800751,8.01440621" id="Fill-55" fill="#F4F7F9" sketch:type="MSShapeGroup"></path>
                                <path d="M76.2243408,21.3940017 C72.3697597,24.1961098 68.7030626,27.2420903 65.2479367,30.5082555 C65.4665065,30.915786 65.4035196,31.4342164 65.0600528,31.7776832 C64.8495582,31.9881778 64.5739233,32.0931559 64.2988268,32.0931559 C64.1104046,32.0931559 63.9219823,32.0441661 63.755094,31.9461866 C60.0464056,35.5854279 56.5918181,39.4868454 53.4247091,43.6159846 C55.0887468,44.1177262 56.8523791,44.3869008 58.6800751,44.3869008 C68.7240582,44.3869008 76.8665915,36.2449058 76.8665915,26.2003843 C76.8665915,24.536885 76.6431766,22.9250671 76.2243408,21.3940017" id="Fill-56" fill="#D9E9F3" sketch:type="MSShapeGroup"></path>
                                <path d="M58.6800751,17.0979742 C58.0851991,17.0979742 57.6033764,17.5797968 57.6033764,18.1746728 L57.6033764,25.3982439 C57.6033764,25.683569 57.7169681,25.9575888 57.9188491,26.1594698 L63.5370626,31.7776832 C63.6038179,31.8444385 63.6770334,31.9004269 63.755094,31.9461866 C64.2492987,31.4605955 64.7440417,30.9841563 65.2479367,30.5082555 C65.1989469,30.4172745 65.1364984,30.331677 65.0600528,30.2552314 L59.7567737,24.9519523 L59.7567737,18.1746728 C59.7567737,17.5797968 59.2744127,17.0979742 58.6800751,17.0979742" id="Fill-57" fill="#D2DCE6" sketch:type="MSShapeGroup"></path>
                                <path d="M65.2479367,30.5082555 C64.7440417,30.9841563 64.2492987,31.4605955 63.755094,31.9461866 C63.9219823,32.0441661 64.1104046,32.0931559 64.2988268,32.0931559 C64.5739233,32.0931559 64.8495582,31.9881778 65.0600528,31.7776832 C65.4035196,31.4342164 65.4665065,30.915786 65.2479367,30.5082555" id="Fill-58" fill="#B8CFE1" sketch:type="MSShapeGroup"></path>
                                <path d="M86,169 L39,169 L39,161 C39,152.1632 46.173375,145 55,145 L70,145 C78.826625,145 86,152.1632 86,161 L86,169" id="Fill-59" fill="#4AC6C6" sketch:type="MSShapeGroup"></path>
                                <path d="M86.13589,169.939112 L38.7611505,169.939112 C38.1668129,169.939112 37.6844519,169.45729 37.6844519,168.862414 L37.6844519,160.787174 C37.6844519,151.288 45.4124563,143.559996 54.9116299,143.559996 L69.9854106,143.559996 C79.4845842,143.559996 87.2125886,151.288 87.2125886,160.787174 L87.2125886,168.862414 C87.2125886,169.45729 86.730766,169.939112 86.13589,169.939112 M39.8378491,167.785715 L85.0591914,167.785715 L85.0591914,160.787174 C85.0591914,152.475599 78.2969857,145.713393 69.9854106,145.713393 L54.9116299,145.713393 C46.6000548,145.713393 39.8378491,152.475599 39.8378491,160.787174 L39.8378491,167.785715" id="Fill-60" fill="#1F5081" sketch:type="MSShapeGroup"></path>
                                <path d="M52.7582326,145.866823 C52.0686072,145.965879 51.3940555,146.111772 50.7372693,146.301271 C50.7410377,152.742082 55.9447222,157.9673 62.3779965,158.005523 L62.519044,158.005523 C68.9523183,157.9673 74.1560027,152.742082 74.1597712,146.301271 C73.502985,146.111772 72.8284333,145.965879 72.1388079,145.866823 L72.1388079,146.251743 C72.1388079,151.59486 67.7916372,155.94203 62.4485202,155.94203 C57.1054033,155.94203 52.7582326,151.59486 52.7582326,146.251743 L52.7582326,145.866823" id="Fill-61" fill="#42AEB8" sketch:type="MSShapeGroup"></path>
                                <path d="M52.7582326,144.780434 C52.0702222,144.87303 51.3951322,145.008694 50.7372693,145.184196 L50.7372693,146.294272 L50.7372693,146.301271 C51.3940555,146.111772 52.0686072,145.965879 52.7582326,145.866823 L52.7582326,144.780434 M72.1388079,144.780434 L72.1388079,145.866823 C72.8284333,145.965879 73.502985,146.111772 74.1597712,146.301271 L74.1597712,146.294272 L74.1597712,145.184196 C73.50137,145.008694 72.8268183,144.87303 72.1388079,144.780434" id="Fill-62" fill="#1F5081" sketch:type="MSShapeGroup"></path>
                                <path d="M53.8349312,134.408058 L53.8349312,146.251743 C53.8349312,151.008597 57.6911274,154.865332 62.4485202,154.865332 C67.2059131,154.865332 71.0621092,151.008597 71.0621092,146.251743 L71.0621092,134.408058 L53.8349312,134.408058" id="Fill-63" fill="#FFE1A4" sketch:type="MSShapeGroup"></path>
                                <path d="M62.4485202,155.94203 C57.1054033,155.94203 52.7582326,151.59486 52.7582326,146.251743 L52.7582326,134.408058 C52.7582326,133.813182 53.2405936,133.331359 53.8349312,133.331359 L71.0621092,133.331359 C71.6569852,133.331359 72.1388079,133.813182 72.1388079,134.408058 L72.1388079,146.251743 C72.1388079,151.59486 67.7916372,155.94203 62.4485202,155.94203 M54.9116299,135.484756 L54.9116299,146.251743 C54.9116299,150.407799 58.2924636,153.788633 62.4485202,153.788633 C66.6045769,153.788633 69.9854106,150.407799 69.9854106,146.251743 L69.9854106,135.484756 L54.9116299,135.484756" id="Fill-64" fill="#1F5081" sketch:type="MSShapeGroup"></path>
                                <path d="M54.9116299,143.785026 L54.9116299,144.485419 C57.1592383,145.15351 59.530667,145.534123 61.9887699,145.575038 C62.0991315,145.577191 62.2089548,145.578268 62.3187781,145.578806 L62.5626503,145.578806 C65.1391901,145.567501 67.6285173,145.190656 69.9854106,144.502646 L69.9854106,143.785564 C67.5870644,144.456886 65.0584377,144.815965 62.4490586,144.815965 C59.8380644,144.815965 57.3110528,144.456886 54.9116299,143.785026" id="Fill-65" fill="#E8D2A0" sketch:type="MSShapeGroup"></path>
                                <path d="M71.0621092,143.460401 C70.7062604,143.576147 70.3471814,143.684355 69.9854106,143.785564 L69.9854106,144.502646 C70.3477197,144.397129 70.7062604,144.284614 71.0621092,144.164562 L71.0621092,143.460401 M53.8349312,143.460401 L53.8349312,144.139798 C54.1902418,144.262542 54.5493208,144.377749 54.9116299,144.485419 L54.9116299,143.785026 C54.5498591,143.683816 54.1907801,143.575608 53.8349312,143.460401" id="Fill-66" fill="#1F5081" sketch:type="MSShapeGroup"></path>
                                <path d="M69.9854106,164.01727 L79.1373489,164.01727 L79.1373489,161.863873 L69.9854106,161.863873 L69.9854106,164.01727 Z" id="Fill-67" fill="#42AEB8" sketch:type="MSShapeGroup"></path>
                                <path d="M89.3622174,91.6636607 C89.2841568,76.8644381 77.2660467,64.8910111 62.4485202,64.8910111 C47.6309938,64.8910111 35.6128837,76.8644381 35.5348231,91.6636607 L35.5310546,91.6636607 L35.5310546,112.610294 C35.5310546,127.371294 47.2293852,139.720489 61.9882316,139.967053 C77.0652424,140.219 89.3659859,128.072763 89.3659859,113.053356 L89.3659859,91.6636607 L89.3622174,91.6636607" id="Fill-68" fill="#FFE1A4" sketch:type="MSShapeGroup"></path>
                                <path d="M62.4539037,141.04752 C62.2923989,141.04752 62.1314325,141.045905 61.9704661,141.043213 C46.7981674,140.790189 34.454356,128.035079 34.454356,112.610294 L34.454356,91.6631224 L34.4592011,91.5629894 C34.5910967,76.25395 47.1276372,63.8137741 62.4485202,63.8137741 C77.77048,63.8137741 90.3075588,76.2555651 90.4383777,91.5662195 L90.4426845,91.6631224 L90.4426845,113.053356 C90.4426845,120.619855 87.4715346,127.708301 82.0761978,133.014271 C76.7971445,138.205574 69.8454398,141.04752 62.4539037,141.04752 M36.6077532,91.7562568 L36.6077532,112.610294 C36.6077532,126.867399 48.0013781,138.656172 62.0059971,138.890354 C68.9948479,139.000177 75.5874736,136.374648 80.566128,131.478899 C85.5463975,126.580997 88.2892872,120.037361 88.2892872,113.053356 L88.2892872,91.7530267 L88.2855188,91.6690442 C88.2112266,77.4969986 76.6205659,65.9677097 62.4485202,65.9677097 C48.2770129,65.9677097 36.6863522,77.4969986 36.6115217,91.6690442 L36.6077532,91.7562568" id="Fill-69" fill="#1F5081" sketch:type="MSShapeGroup"></path>
                                <path d="M35.5310546,100.671321 C31.9634137,100.671321 29.0708629,103.563872 29.0708629,107.131513 C29.0708629,110.699154 31.9634137,113.591705 35.5310546,113.591705 L35.5310546,100.671321" id="Fill-70" fill="#FFE1A4" sketch:type="MSShapeGroup"></path>
                                <path d="M35.5310546,114.668404 C31.3749979,114.668404 27.9941642,111.287032 27.9941642,107.131513 C27.9941642,102.975456 31.3749979,99.5946228 35.5310546,99.5946228 C36.1253923,99.5946228 36.6077532,100.076984 36.6077532,100.671321 L36.6077532,113.591705 C36.6077532,114.186581 36.1253923,114.668404 35.5310546,114.668404 M34.454356,101.856228 C32.0000215,102.356355 30.1475615,104.531824 30.1475615,107.131513 C30.1475615,109.731202 32.0000215,111.906133 34.454356,112.406798 L34.454356,101.856228" id="Fill-71" fill="#1F5081" sketch:type="MSShapeGroup"></path>
                                <path d="M89.3659859,100.671321 C92.9336268,100.671321 95.8261776,103.563872 95.8261776,107.131513 C95.8261776,110.699154 92.9336268,113.591705 89.3659859,113.591705 L89.3659859,100.671321" id="Fill-72" fill="#FFE1A4" sketch:type="MSShapeGroup"></path>
                                <path d="M89.3659859,114.668404 C88.7716482,114.668404 88.2892872,114.186581 88.2892872,113.591705 L88.2892872,100.671321 C88.2892872,100.076984 88.7716482,99.5946228 89.3659859,99.5946228 C93.5220426,99.5946228 96.9028762,102.975456 96.9028762,107.131513 C96.9028762,111.287032 93.5220426,114.668404 89.3659859,114.668404 M90.4426845,101.856228 L90.4426845,112.406798 C92.8964807,111.906133 94.749479,109.731202 94.749479,107.131513 C94.749479,104.531824 92.8964807,102.356355 90.4426845,101.856228" id="Fill-73" fill="#1F5081" sketch:type="MSShapeGroup"></path>
                                <path d="M54.3732806,100.651403 C54.3732806,102.137785 53.1679164,103.343149 51.681534,103.343149 C50.1951515,103.343149 48.9897874,102.137785 48.9897874,100.651403 C48.9897874,99.1650201 50.1951515,97.9596559 51.681534,97.9596559 C53.1679164,97.9596559 54.3732806,99.1650201 54.3732806,100.651403" id="Fill-74" fill="#1F5081" sketch:type="MSShapeGroup"></path>
                                <path d="M75.9072531,100.651403 C75.9072531,102.137785 74.7018889,103.343149 73.2155065,103.343149 C71.729124,103.343149 70.5237599,102.137785 70.5237599,100.651403 C70.5237599,99.1650201 71.729124,97.9596559 73.2155065,97.9596559 C74.7018889,97.9596559 75.9072531,99.1650201 75.9072531,100.651403" id="Fill-75" fill="#1F5081" sketch:type="MSShapeGroup"></path>
                                <path d="M89.0435146,96.3747556 C86.6839296,98.4194063 85.328366,101.388403 85.328366,104.510829 L85.328366,112.681356 C85.328366,114.402459 84.304964,116.016969 82.6818408,116.589234 C81.1782312,117.11897 79.5717968,116.717361 78.5047885,115.651429 L75.4631149,112.609217 C74.7131943,111.859297 73.6967908,111.437769 72.6362426,111.437769 L68.3396768,111.437769 C67.8583925,111.437769 67.4535538,111.762932 67.304431,112.219991 C66.6363395,114.266257 64.7171242,115.745102 62.4490586,115.745102 C60.1799162,115.745102 58.2607009,114.266257 57.5926094,112.219991 C57.4429483,111.762932 57.0381097,111.437769 56.5573637,111.437769 L52.2602595,111.437769 C51.2002497,111.437769 50.1833079,111.859297 49.4339256,112.609217 L46.492385,115.551296 C45.8140648,116.229078 44.9376322,116.703902 43.9847539,116.800805 C41.5885611,117.044139 39.5692128,115.170145 39.5692128,112.825096 L39.5692128,104.510829 C39.5692128,101.388403 38.2125725,98.4194063 35.8529875,96.3747556 L35.531593,96.0953523 L35.531593,116.821801 C35.531593,131.687779 47.582004,143.739266 62.4490586,143.739266 C77.3144982,143.739266 89.3659859,131.687779 89.3659859,116.821801 L89.3659859,96.0953523 L89.0435146,96.3747556" id="Fill-76" fill="#FFBD17" sketch:type="MSShapeGroup"></path>
                                <path d="M62.4490586,144.815965 C47.0129688,144.815965 34.454356,132.257891 34.454356,116.821801 L34.454356,96.0953523 C34.454356,95.6738248 34.70092,95.2910584 35.0842247,95.1160949 C35.4675294,94.940593 35.9181278,95.0062716 36.2368306,95.2819065 L36.5587635,95.5607714 C39.1562989,97.8126866 40.6453731,101.074545 40.6453731,104.510829 L40.6453731,112.825096 C40.6453731,113.649308 40.9969152,114.439067 41.6090184,114.99249 C42.2297351,115.552911 43.034029,115.813473 43.875469,115.72949 C44.5327935,115.662735 45.191733,115.328958 45.7306207,114.789532 L48.6726997,111.847992 C49.6304231,110.889191 50.9046959,110.361609 52.2602595,110.361609 L56.5579021,110.361609 C57.4903231,110.361609 58.3172276,110.973174 58.6160115,111.884599 C59.1592059,113.550252 60.6994233,114.668404 62.4490586,114.668404 C64.1976172,114.668404 65.7378345,113.550252 66.281029,111.885676 C66.5781978,110.974251 67.4056407,110.361609 68.3396768,110.361609 L72.6362426,110.361609 C73.9923446,110.361609 75.266079,110.889191 76.2243408,111.847992 L79.2660144,114.890203 C80.0697699,115.692882 81.241218,115.955058 82.3243769,115.573369 C83.4775211,115.167453 84.2522058,114.004619 84.2522058,112.681356 L84.2522058,104.510829 C84.2522058,101.074545 85.7412799,97.8121482 88.338277,95.5607714 L88.3388154,95.5602331 L88.6612866,95.2813681 C88.9805278,95.0057333 89.4300494,94.940593 89.8138925,95.1160949 C90.1971972,95.2910584 90.4432228,95.6738248 90.4432228,96.0953523 L90.4432228,116.821801 C90.4432228,132.257891 77.8851484,144.815965 62.4490586,144.815965 M36.6077532,98.7693333 L36.6077532,116.821801 C36.6077532,131.070292 48.200029,142.662568 62.4490586,142.662568 C76.6975498,142.662568 88.2898256,131.070292 88.2898256,116.821801 L88.2898256,98.768795 C87.0758479,100.417759 86.405603,102.425263 86.405603,104.510829 L86.405603,112.681356 C86.405603,114.916583 85.0527312,116.895016 83.0398431,117.604561 C81.1685409,118.264039 79.1384256,117.80698 77.7441009,116.412655 L74.7013506,113.370443 C74.1500809,112.818635 73.4168491,112.515006 72.6362426,112.515006 L68.3396768,112.515006 C67.4944684,115.10662 65.1321916,116.821801 62.4490586,116.821801 C59.7648489,116.821801 57.4020338,115.10662 56.5692074,112.553767 L52.2602595,112.515006 C51.4801914,112.515006 50.7469596,112.818635 50.1956899,113.369905 L47.2530726,116.312522 C46.3653345,117.201337 45.2428762,117.75476 44.0940388,117.871582 C42.6571845,118.018013 41.227867,117.550187 40.1651655,116.590311 C39.1019256,115.629357 38.4919758,114.257105 38.4919758,112.825096 L38.4919758,104.510829 C38.4919758,102.425802 37.8217309,100.418297 36.6077532,98.7693333" id="Fill-77" fill="#1F5081" sketch:type="MSShapeGroup"></path>
                                <path d="M89.0435146,96.3747556 C86.6839296,98.4194063 85.328366,101.388403 85.328366,104.510829 L85.328366,112.681356 C85.328366,114.402459 84.304964,116.016969 82.6818408,116.589234 C81.1782312,117.11897 79.5717968,116.717361 78.5047885,115.651429 L75.4631149,112.609217 C74.7131943,111.859297 73.6967908,111.437769 72.6362426,111.437769 L68.3396768,111.437769 C67.8583925,111.437769 67.4535538,111.762932 67.304431,112.219991 C66.6363395,114.266257 64.7171242,115.745102 62.4490586,115.745102 C60.1799162,115.745102 58.2607009,114.266257 57.5926094,112.219991 C57.4429483,111.762932 57.0381097,111.437769 56.5573637,111.437769 L52.2602595,111.437769 C51.2002497,111.437769 50.1833079,111.859297 49.4339256,112.609217 L46.492385,115.551296 C45.8140648,116.229078 44.9376322,116.703902 43.9847539,116.800805 C41.5885611,117.044139 39.5692128,115.170145 39.5692128,112.825096 L39.5692128,104.510829 C39.5692128,101.388403 38.2125725,98.4194063 35.8529875,96.3747556 L35.531593,96.0953523 L35.531593,116.821801 C35.531593,131.687779 47.582004,143.739266 62.4490586,143.739266 C77.3144982,143.739266 89.3659859,131.687779 89.3659859,116.821801 L89.3659859,96.0953523 L89.0435146,96.3747556" id="Fill-78" fill="#E8991F" sketch:type="MSShapeGroup"></path>
                                <path d="M62.4490586,144.815965 C47.0129688,144.815965 34.454356,132.257891 34.454356,116.821801 L34.454356,96.0953523 C34.454356,95.6738248 34.70092,95.2910584 35.0842247,95.1160949 C35.4675294,94.940593 35.9181278,95.0062716 36.2368306,95.2819065 L36.5587635,95.5607714 C39.1562989,97.8126866 40.6453731,101.074545 40.6453731,104.510829 L40.6453731,112.825096 C40.6453731,113.649308 40.9969152,114.439067 41.6090184,114.99249 C42.2297351,115.552911 43.034029,115.813473 43.875469,115.72949 C44.5327935,115.662735 45.191733,115.328958 45.7306207,114.789532 L48.6726997,111.847992 C49.6304231,110.889191 50.9046959,110.361609 52.2602595,110.361609 L56.5579021,110.361609 C57.4903231,110.361609 58.3172276,110.973174 58.6160115,111.884599 C59.1592059,113.550252 60.6994233,114.668404 62.4490586,114.668404 C64.1976172,114.668404 65.7378345,113.550252 66.281029,111.885676 C66.5781978,110.974251 67.4056407,110.361609 68.3396768,110.361609 L72.6362426,110.361609 C73.9923446,110.361609 75.266079,110.889191 76.2243408,111.847992 L79.2660144,114.890203 C80.0697699,115.692882 81.241218,115.955058 82.3243769,115.573369 C83.4775211,115.167453 84.2522058,114.004619 84.2522058,112.681356 L84.2522058,104.510829 C84.2522058,101.074545 85.7412799,97.8121482 88.338277,95.5607714 L88.3388154,95.5602331 L88.6612866,95.2813681 C88.9805278,95.0057333 89.4300494,94.940593 89.8138925,95.1160949 C90.1971972,95.2910584 90.4432228,95.6738248 90.4432228,96.0953523 L90.4432228,116.821801 C90.4432228,132.257891 77.8851484,144.815965 62.4490586,144.815965 M36.6077532,98.7693333 L36.6077532,116.821801 C36.6077532,131.070292 48.200029,142.662568 62.4490586,142.662568 C76.6975498,142.662568 88.2898256,131.070292 88.2898256,116.821801 L88.2898256,98.768795 C87.0758479,100.417759 86.405603,102.425263 86.405603,104.510829 L86.405603,112.681356 C86.405603,114.916583 85.0527312,116.895016 83.0398431,117.604561 C81.1685409,118.264039 79.1384256,117.80698 77.7441009,116.412655 L74.7013506,113.370443 C74.1500809,112.818635 73.4168491,112.515006 72.6362426,112.515006 L68.3396768,112.515006 C67.4944684,115.10662 65.1321916,116.821801 62.4490586,116.821801 C59.7648489,116.821801 57.4020338,115.10662 56.5692074,112.553767 L52.2602595,112.515006 C51.4801914,112.515006 50.7469596,112.818635 50.1956899,113.369905 L47.2530726,116.312522 C46.3653345,117.201337 45.2428762,117.75476 44.0940388,117.871582 C42.6571845,118.018013 41.227867,117.550187 40.1651655,116.590311 C39.1019256,115.629357 38.4919758,114.257105 38.4919758,112.825096 L38.4919758,104.510829 C38.4919758,102.425802 37.8217309,100.418297 36.6077532,98.7693333" id="Fill-79" fill="#1F5081" sketch:type="MSShapeGroup"></path>
                                <g id="Group-82" transform="translate(36.607753, 118.975198)">
                                    <mask id="mask-6" sketch:name="Clip 81" fill="white">
                                        <use xlink:href="#path-5"></use>
                                    </mask>
                                    <g id="Clip-81"></g>
                                    <path d="M0.131357232,0.458673614 L51.5507151,0.458673614 L51.5507151,23.6873697 L0.131357232,23.6873697 L0.131357232,0.458673614 Z" id="Fill-80" fill="#CA8E2E" sketch:type="MSShapeGroup" mask="url(#mask-6)"></path>
                                </g>
                                <path d="M35.5310546,111.438308 L35.5310546,116.821801 C35.5310546,131.687779 47.5825423,143.739266 62.4485202,143.739266 C77.2789671,143.739266 89.3089208,131.74592 89.3659859,116.928394 L89.3659859,111.544901 C89.3552189,114.291559 88.9336914,116.939699 88.1584684,119.433872 C86.844896,132.46031 75.8157337,142.662568 62.4490586,142.662568 C49.0829219,142.662568 38.0542979,132.461387 36.7391105,119.436025 C35.9541972,116.909552 35.5310546,114.22265 35.5310546,111.438308" id="Fill-83" fill="#1F5081" sketch:type="MSShapeGroup"></path>
                                <path d="M62.4485202,127.588787 C65.58602,127.588787 68.201321,125.351946 68.7865067,122.386179 C68.9151722,121.732085 68.3902816,121.128595 67.7238052,121.128595 L57.1732353,121.128595 C56.5067589,121.128595 55.9818683,121.732085 56.1105338,122.386179 C56.6957195,125.351946 59.3110205,127.588787 62.4485202,127.588787" id="Fill-84" fill="#1F5081" sketch:type="MSShapeGroup"></path>
                                <path d="M62.9868696,131.357232 L62.9868696,131.357232 C62.0948247,131.357232 61.3718216,132.080235 61.3718216,132.97228 C61.3718216,133.864325 62.0948247,134.587328 62.9868696,134.587328 C63.8789144,134.587328 64.6019175,133.864325 64.6019175,132.97228 C64.6019175,132.080235 63.8789144,131.357232 62.9868696,131.357232" id="Fill-85" fill="#CA8E2E" sketch:type="MSShapeGroup"></path>
                                <path d="M53.5345323,91.9882854 L47.8307214,93.5834144 C46.8293916,93.863356 45.7898391,93.2781703 45.5093591,92.2752256 C45.2294175,91.2738958 45.8146032,90.233805 46.8164713,89.953325 L52.5197439,88.3592727 C53.5221503,88.079331 54.5617028,88.6645167 54.8416445,89.6669231 C55.1221245,90.6693296 54.5369388,91.7088821 53.5345323,91.9882854" id="Fill-86" fill="#FFBD17" sketch:type="MSShapeGroup"></path>
                                <path d="M47.3252114,94.7295601 C46.0299429,94.7295601 44.8380375,93.872508 44.4724984,92.5659342 C44.0332053,90.9934158 44.954321,89.3568339 46.5257626,88.9170025 L52.2295736,87.3218735 C53.8026303,86.8831188 55.4392122,87.8047729 55.8785052,89.3767529 C56.0911532,90.1379788 55.995327,90.9374275 55.6071772,91.6265146 C55.2190273,92.3161401 54.5859285,92.8130365 53.8241643,93.0256845 L48.1208916,94.6202752 C47.8560238,94.694029 47.5884642,94.7295601 47.3252114,94.7295601 L47.3252114,94.7295601 Z M53.0263306,89.3659859 C52.9547301,89.3659859 52.8815146,89.3756762 52.8093758,89.3961334 L47.1061032,90.9907241 C46.6775771,91.110776 46.426168,91.5570676 46.5462199,91.986132 C46.6657335,92.4141197 47.11041,92.6655288 47.5416278,92.5460153 L53.2443621,90.9514246 C53.4527032,90.8932829 53.624975,90.7581572 53.7310298,90.5702733 C53.8365463,90.3823894 53.8629254,90.1643579 53.8047837,89.9570934 C53.7046507,89.6001678 53.3794877,89.3659859 53.0263306,89.3659859 L53.0263306,89.3659859 Z" id="Fill-87" fill="#1F5081" sketch:type="MSShapeGroup"></path>
                                <path d="M70.503841,91.9882854 L76.2071136,93.5834144 C77.2089817,93.863356 78.2485342,93.2781703 78.5290142,92.2752256 C78.8089559,91.2738958 78.2237702,90.233805 77.2219021,89.953325 L71.5186295,88.3592727 C70.516223,88.079331 69.4766705,88.6645167 69.1967289,89.6669231 C68.9162489,90.6693296 69.5014346,91.7088821 70.503841,91.9882854" id="Fill-88" fill="#FFBD17" sketch:type="MSShapeGroup"></path>
                                <path d="M76.713162,94.7295601 C76.4499092,94.7295601 76.1828879,94.694029 75.9174817,94.6202752 L70.2136707,93.0256845 C69.4519065,92.8124982 68.8188077,92.3156018 68.4311962,91.6265146 C68.0430463,90.9374275 67.9466818,90.1379788 68.1598681,89.3762145 C68.5991611,87.8053112 70.2357431,86.8831188 71.8082614,87.3218735 L77.5120724,88.9164642 C79.083514,89.3568339 80.005168,90.9934158 79.565875,92.5653958 C79.2003358,93.872508 78.0078921,94.7295601 76.713162,94.7295601 L76.713162,94.7295601 Z M71.0120428,89.3659859 C70.6588856,89.3659859 70.3331843,89.6001678 70.2335897,89.9565551 C70.1754479,90.1643579 70.201827,90.3823894 70.3073435,90.5702733 C70.4133983,90.7581572 70.5856701,90.8932829 70.7934729,90.9514246 L70.7940113,90.9514246 L76.4972839,92.5460153 C76.92581,92.6655288 77.3721015,92.414658 77.4921534,91.9855936 C77.6122053,91.5570676 77.3602579,91.110776 76.9317318,90.9907241 L71.2289975,89.3961334 C71.1563204,89.3756762 71.0836432,89.3659859 71.0120428,89.3659859 L71.0120428,89.3659859 Z" id="Fill-89" fill="#1F5081" sketch:type="MSShapeGroup"></path>
                                <path d="M246.563985,168.503335 L199.189246,168.503335 L199.189246,160.428095 C199.189246,151.508185 206.420354,144.277616 215.339725,144.277616 L230.413506,144.277616 C239.333415,144.277616 246.563985,151.508185 246.563985,160.428095 L246.563985,168.503335" id="Fill-92" fill="#FF4E4A" sketch:type="MSShapeGroup"></path>
                                <path d="M246.563985,169.580033 L199.189246,169.580033 C198.59437,169.580033 198.112547,169.097672 198.112547,168.503335 L198.112547,160.428095 C198.112547,150.928921 205.840551,143.200917 215.339725,143.200917 L230.413506,143.200917 C239.912679,143.200917 247.640684,150.928921 247.640684,160.428095 L247.640684,168.503335 C247.640684,169.097672 247.158323,169.580033 246.563985,169.580033 M200.265944,167.426636 L245.487286,167.426636 L245.487286,160.428095 C245.487286,152.11652 238.725619,145.354314 230.413506,145.354314 L215.339725,145.354314 C207.02815,145.354314 200.265944,152.11652 200.265944,160.428095 L200.265944,167.426636" id="Fill-93" fill="#1F5081" sketch:type="MSShapeGroup"></path>
                                <path d="M213.186328,145.507744 C212.496702,145.6068 211.821612,145.752693 211.164826,145.942192 C211.169133,152.40669 216.41104,157.646444 222.876615,157.646444 C229.342191,157.646444 234.584098,152.40669 234.587866,145.942192 C233.93108,145.752693 233.256528,145.6068 232.566903,145.507744 L232.566903,145.892664 C232.566903,151.235781 228.219732,155.582951 222.876615,155.582951 C217.533498,155.582951 213.186328,151.235781 213.186328,145.892664 L213.186328,145.507744" id="Fill-94" fill="#D24E55" sketch:type="MSShapeGroup"></path>
                                <path d="M232.566903,144.421355 L232.566903,145.507744 C233.256528,145.6068 233.93108,145.752693 234.587866,145.942192 L234.587866,145.935193 L234.587866,144.825117 C233.930003,144.649615 233.254913,144.513951 232.566903,144.421355 M213.186328,144.421355 C212.497779,144.513951 211.823766,144.649615 211.164826,144.825117 L211.164826,145.935193 L211.164826,145.942192 C211.821612,145.752693 212.496702,145.6068 213.186328,145.507744 L213.186328,144.421355" id="Fill-95" fill="#1F5081" sketch:type="MSShapeGroup"></path>
                                <path d="M214.263026,134.048979 L214.263026,145.892664 C214.263026,150.650057 218.119761,154.506253 222.876615,154.506253 C227.63347,154.506253 231.490204,150.650057 231.490204,145.892664 L231.490204,134.048979 L214.263026,134.048979" id="Fill-96" fill="#FCDFA1" sketch:type="MSShapeGroup"></path>
                                <path d="M222.876615,155.582951 C217.533498,155.582951 213.186328,151.235781 213.186328,145.892664 L213.186328,134.048979 C213.186328,133.454103 213.66815,132.97228 214.263026,132.97228 L231.490204,132.97228 C232.084542,132.97228 232.566903,133.454103 232.566903,134.048979 L232.566903,145.892664 C232.566903,151.235781 228.219732,155.582951 222.876615,155.582951 M215.339725,135.125677 L215.339725,145.892664 C215.339725,150.04872 218.720559,153.429554 222.876615,153.429554 C227.032672,153.429554 230.413506,150.04872 230.413506,145.892664 L230.413506,135.125677 L215.339725,135.125677" id="Fill-97" fill="#1F5081" sketch:type="MSShapeGroup"></path>
                                <path d="M215.339725,142.920975 L215.339725,144.12634 C217.587333,144.794431 219.958762,145.175044 222.416865,145.215959 C222.56868,145.21865 222.720494,145.219727 222.87177,145.219727 C225.490301,145.219727 228.020005,144.842344 230.413506,144.144105 L230.413506,142.923129 C227.973707,143.606294 225.425699,143.958913 222.82278,143.958913 C222.661814,143.958913 222.500848,143.957298 222.339881,143.954606 C219.922154,143.91423 217.57549,143.556228 215.339725,142.920975" id="Fill-98" fill="#B6927A" sketch:type="MSShapeGroup"></path>
                                <path d="M231.490204,142.597966 C231.133817,142.713711 230.774738,142.821919 230.413506,142.923129 L230.413506,144.144105 C230.775815,144.038589 231.134355,143.925535 231.490204,143.805483 L231.490204,142.597966 M214.263026,142.590429 L214.263026,143.780719 C214.618875,143.903463 214.977416,144.01867 215.339725,144.12634 L215.339725,142.920975 C214.977416,142.817612 214.619414,142.707789 214.263026,142.590429" id="Fill-99" fill="#1F5081" sketch:type="MSShapeGroup"></path>
                                <path d="M230.413506,163.658191 L239.565444,163.658191 L239.565444,161.504794 L230.413506,161.504794 L230.413506,163.658191 Z" id="Fill-100" fill="#D24E55" sketch:type="MSShapeGroup"></path>
                                <g id="Group-130" transform="translate(53.296582, 156.121301)">
                                    <mask id="mask-8" sketch:name="Clip 129" fill="white">
                                        <use xlink:href="#path-7"></use>
                                    </mask>
                                    <g id="Clip-129"></g>
                                    <path d="M10.4450534,10.4124994 C10.4450534,10.9330832 10.0219108,11.3556874 9.50025032,11.3556874 C8.97805148,11.3556874 8.55490892,10.9330832 8.55490892,10.4124994 C8.55490892,9.89137724 8.97805148,9.46877303 9.50025032,9.46877303 C10.0219108,9.46877303 10.4450534,9.89137724 10.4450534,10.4124994 L10.4450534,10.4124994 Z M9.50186537,12.2951069 C8.46015945,12.2951069 7.61602772,11.4520519 7.61602772,10.4130377 C7.61602772,9.37294686 8.46015945,8.53043018 9.50186537,8.53043018 C10.5435713,8.53043018 11.387703,9.37294686 11.387703,10.4130377 C11.387703,11.4520519 10.5435713,12.2951069 9.50186537,12.2951069 L9.50186537,12.2951069 Z M9.50078867,6.39426011 C7.4028414,6.39049167 5.70219592,6.02656753 5.70273427,5.5808143 C5.70381097,5.13506107 7.40553314,4.77705878 9.50348041,4.78028887 C11.601966,4.78351897 13.3020732,5.1474431 13.3015348,5.59319633 C13.3009965,6.03894956 11.5992743,6.39749021 9.50078867,6.39426011 L9.50078867,6.39426011 Z M13.7655919,13.4460978 C13.6756876,13.4460978 13.6030104,13.5101613 13.6030104,13.5101613 C13.6030104,13.5101613 12.1424687,14.6649206 9.50186537,14.6649206 C6.86126199,14.6649206 5.4007203,13.5101613 5.4007203,13.5101613 C5.4007203,13.5101613 5.32858149,13.4460978 5.23813881,13.4460978 C5.13046895,13.4460978 5.02818258,13.5182366 5.02818258,13.677588 L5.03302772,13.7281928 C5.25967278,14.9394787 5.42548437,15.7986843 5.45455523,15.9295031 C5.65266778,16.8210096 7.3985346,17.4934079 9.50186537,17.4934079 C11.6051961,17.4934079 13.3516013,16.8210096 13.5491755,15.9295031 C13.5782464,15.7986843 13.7440579,14.9394787 13.970703,13.7281928 L13.9755482,13.677588 C13.9755482,13.5182366 13.8732618,13.4460978 13.7655919,13.4460978 L13.7655919,13.4460978 Z M9.50186537,3.8220271 L9.50186537,3.8220271 C6.23623844,3.8220271 3.56979429,4.69845978 3.56979429,5.78700209 C3.56979429,6.07340392 4.28149208,10.1831626 4.56412547,11.8127459 C4.69063756,12.5438243 6.58293539,13.6156778 9.50025032,13.6156778 L9.50348041,13.6065259 L9.50348041,13.6156778 C12.4207953,13.6156778 14.3130932,12.5438243 14.4396053,11.8127459 C14.7222386,10.1831626 15.4344748,6.07340392 15.4344748,5.78700209 C15.4344748,4.69845978 12.7674923,3.8220271 9.50186537,3.8220271 L9.50186537,3.8220271 Z" id="Fill-128" fill="#FFFFFF" sketch:type="MSShapeGroup" mask="url(#mask-8)"></path>
                                </g>
                                <path d="M101,160 L142.400057,160 L181,160 L181,161.5 C181,162.328427 180.332424,163 179.508436,163 L102.491564,163 C101.667796,163 101,162.334203 101,161.5 L101,160 Z" id="Rectangle-723" fill="#CAD4DE" sketch:type="MSShapeGroup"></path>
                                <g id="Imported-Layers-Copy-4" transform="translate(190.000000, 71.000000)" sketch:type="MSShapeGroup">
                                    <path d="M32.7344651,53.5204324 C29.9138605,53.5204324 27.618186,51.2162973 27.618186,48.3852973 C27.618186,47.8178649 28.0766047,47.3582703 28.6414419,47.3582703 C29.2067907,47.3582703 29.6646977,47.8178649 29.6646977,48.3852973 C29.6646977,50.084 31.042,51.4663784 32.7344651,51.4663784 C34.4274419,51.4663784 35.8042326,50.084 35.8042326,48.3852973 C35.8042326,47.8178649 36.2626512,47.3582703 36.8274884,47.3582703 C37.3928372,47.3582703 37.8507442,47.8178649 37.8507442,48.3852973 C37.8507442,51.2162973 35.5555814,53.5204324 32.7344651,53.5204324" id="Fill-1" fill="#274971"></path>
                                    <path d="M33.9076279,1.02805405 C11.9188837,1.02805405 4.35037209,10.2332973 4.35037209,26.1152432 L4.35037209,44.6017297 L61.6526977,44.6017297 L61.6526977,26.1152432 C61.6526977,10.2332973 55.1268837,1.02805405 33.9076279,1.02805405" id="Fill-2" fill="#3572B0" filter="url(#filter-9)"></path>
                                    <path d="M61.6526977,45.6292703 L4.35037209,45.6292703 C3.78502326,45.6292703 3.32711628,45.1691622 3.32711628,44.6017297 L3.32711628,26.1152432 C3.32711628,8.29889189 13.0444651,0.00102702703 33.9076279,0.00102702703 C44.4512558,0.00102702703 51.8284186,2.25432432 56.460186,6.88878378 C60.7010698,11.1324595 62.6759535,17.2417297 62.6759535,26.1152432 L62.6759535,44.6017297 C62.6759535,45.1691622 62.2175349,45.6292703 61.6526977,45.6292703 L61.6526977,45.6292703 Z M5.37362791,43.5747027 L60.6294419,43.5747027 L60.6294419,26.1152432 C60.6294419,17.8235405 58.8453953,12.1764324 55.0148372,8.34356757 C50.7867442,4.11221622 43.881814,2.05508108 33.9076279,2.05508108 C14.1736279,2.05508108 5.37362791,9.47535135 5.37362791,26.1152432 L5.37362791,43.5747027 L5.37362791,43.5747027 Z" id="Fill-3" fill="#274971"></path>
                                    <path d="M7.42013953,28.8332703 L7.42013953,54.1926216 C7.42013953,68.2726486 18.858093,74.538027 32.8843721,74.7732162 C47.2130233,75.013027 58.5829302,68.9417568 58.5829302,54.6152432 L58.5829302,28.8332703 C58.5829302,26.0058649 55.8012093,24.0103514 53.1458605,24.9531622 C48.8379535,26.4834324 42.0399535,28.1692973 33.0015349,28.1692973 C23.9636279,28.1692973 17.1656279,26.4834324 12.8577209,24.9531622 C10.2018605,24.0103514 7.42013953,26.0058649 7.42013953,28.8332703" id="Fill-4" fill="#FDDFA1"></path>
                                    <path d="M33.7157674,75.8069189 C33.4353953,75.8069189 33.1524651,75.8043514 32.8674884,75.7997297 C16.2927907,75.5224324 6.39688372,67.4448649 6.39688372,54.1926216 L6.39688372,28.8332703 C6.39688372,27.1658919 7.2067907,25.5960811 8.56362791,24.6332432 C9.93325581,23.6616757 11.6226512,23.4254595 13.1989767,23.9851892 C17.2541395,25.4255946 23.9815349,27.1427838 33.0015349,27.1427838 C42.0220465,27.1427838 48.7489302,25.4255946 52.8046047,23.9851892 C54.3814419,23.4254595 56.0703256,23.6616757 57.4394419,24.6327297 C58.7962791,25.5955676 59.606186,27.1658919 59.606186,28.8332703 L59.606186,54.6157568 C59.606186,60.5447838 57.7489767,65.3841351 54.0862326,68.9992703 C49.5665116,73.4606757 42.5357209,75.8069189 33.7157674,75.8069189 M11.4957674,25.743973 C10.8792558,25.743973 10.2724651,25.936027 9.74548837,26.3098649 C8.91818605,26.8973243 8.44339535,27.817027 8.44339535,28.8332703 L8.44339535,54.1926216 C8.44339535,60.5114054 10.8153023,65.4406216 15.4931163,68.8431622 C19.7375814,71.9309189 25.7573953,73.6265405 32.9017674,73.7456757 C41.5559535,73.8889459 48.3877209,71.7434865 52.6511163,67.5347297 C55.9081395,64.3201351 57.5596744,59.9732432 57.5596744,54.6157568 L57.5596744,28.8332703 C57.5596744,27.8165135 57.0848837,26.8968108 56.2575814,26.3098649 C55.4384651,25.7290811 54.4285116,25.5868378 53.4871163,25.9221622 C49.2805116,27.415973 42.3121395,29.1968378 33.0015349,29.1968378 C23.6914419,29.1968378 16.7225581,27.415973 12.5164651,25.9221622 C12.1808372,25.8025135 11.8370233,25.743973 11.4957674,25.743973" id="Fill-5" fill="#274971"></path>
                                    <path d="M54.5073023,25.743973 C54.1665581,25.743973 53.8222326,25.8025135 53.4871163,25.9221622 C49.2805116,27.415973 42.3121395,29.1968378 33.0015349,29.1968378 C23.6914419,29.1968378 16.7225581,27.415973 12.5164651,25.9221622 C12.1808372,25.8025135 11.8370233,25.743973 11.4957674,25.743973 C10.8792558,25.743973 10.2724651,25.936027 9.74548837,26.3098649 C8.91818605,26.8973243 8.44339535,27.817027 8.44339535,28.8332703 L8.44339535,28.9221081 C9.20469767,28.0578649 10.313907,27.5274054 11.4993488,27.5274054 C11.946,27.5274054 12.4033953,27.6028919 12.8577209,27.7641351 C17.1656279,29.2938919 23.9636279,30.9797568 33.0015349,30.9797568 C42.0399535,30.9797568 48.8379535,29.2938919 53.1458605,27.7641351 C53.5996744,27.6028919 54.0575814,27.5274054 54.5042326,27.5274054 C55.6891628,27.5274054 56.7983721,28.0578649 57.5596744,28.9215946 L57.5596744,28.8332703 C57.5596744,27.8165135 57.0848837,26.8968108 56.2575814,26.3098649 C55.7306047,25.936027 55.123814,25.743973 54.5073023,25.743973" id="Fill-6" fill="#C7B496"></path>
                                    <path d="M54.5037209,24.7169459 C54.0570698,24.7169459 53.5996744,24.7924324 53.1458605,24.9531622 C48.8379535,26.4834324 42.0399535,28.1692973 33.0015349,28.1692973 C23.9636279,28.1692973 17.1656279,26.4834324 12.8577209,24.9531622 C12.403907,24.7924324 11.946,24.7169459 11.4993488,24.7169459 C9.33209302,24.7169459 7.42013953,26.4890811 7.42013953,28.8332703 L7.42013953,31.6437297 C7.42013953,30.5817838 7.81255814,29.6374324 8.44339535,28.9221081 L8.44339535,28.8332703 C8.44339535,27.817027 8.91818605,26.8973243 9.74548837,26.3098649 C10.2724651,25.936027 10.8792558,25.743973 11.4957674,25.743973 C11.8370233,25.743973 12.1808372,25.8025135 12.5164651,25.9221622 C16.7225581,27.415973 23.6914419,29.1968378 33.0015349,29.1968378 C42.3121395,29.1968378 49.2805116,27.415973 53.4871163,25.9221622 C53.8222326,25.8025135 54.1665581,25.743973 54.5073023,25.743973 C55.123814,25.743973 55.7306047,25.936027 56.2575814,26.3098649 C57.0848837,26.8968108 57.5596744,27.8165135 57.5596744,28.8332703 L57.5596744,28.9215946 C58.1905116,29.6374324 58.5829302,30.5817838 58.5829302,31.6437297 L58.5829302,28.8332703 C58.5829302,26.4895946 56.6709767,24.7169459 54.5037209,24.7169459" id="Fill-7" fill="#274A71"></path>
                                    <path d="M7.42013953,37.9260541 C4.0295814,37.9260541 1.28060465,40.6851622 1.28060465,44.0882162 C1.28060465,47.4917838 4.0295814,50.2503784 7.42013953,50.2503784 L7.42013953,37.9260541" id="Fill-8" fill="#FDDFA1"></path>
                                    <path d="M7.42013953,51.2774054 C3.47037209,51.2774054 0.257348837,48.0525405 0.257348837,44.0887297 C0.257348837,40.1244054 3.47037209,36.899027 7.42013953,36.899027 C7.98497674,36.899027 8.44339535,37.3591351 8.44339535,37.9265676 L8.44339535,50.2508919 C8.44339535,50.8178108 7.98497674,51.2774054 7.42013953,51.2774054 L7.42013953,51.2774054 Z M6.39688372,39.0568108 C4.06437209,39.5333514 2.30386047,41.6084595 2.30386047,44.0887297 C2.30386047,46.5684865 4.06437209,48.6435946 6.39688372,49.1201351 L6.39688372,39.0568108 L6.39688372,39.0568108 Z" id="Fill-9" fill="#274971"></path>
                                    <path d="M58.5829302,37.9260541 C61.974,37.9260541 64.7224651,40.6851622 64.7224651,44.0882162 C64.7224651,47.4917838 61.974,50.2503784 58.5829302,50.2503784 L58.5829302,37.9260541" id="Fill-10" fill="#FDDFA1"></path>
                                    <path d="M58.5829302,51.2774054 C58.0175814,51.2774054 57.5596744,50.8178108 57.5596744,50.2508919 L57.5596744,37.9265676 C57.5596744,37.3591351 58.0175814,36.899027 58.5829302,36.899027 C62.5326977,36.899027 65.7457209,40.1244054 65.7457209,44.0887297 C65.7457209,48.0525405 62.5326977,51.2774054 58.5829302,51.2774054 L58.5829302,51.2774054 Z M59.606186,39.0568108 L59.606186,49.1201351 C61.9386977,48.6435946 63.6992093,46.5684865 63.6992093,44.0887297 C63.6992093,41.6084595 61.9386977,39.5333514 59.606186,39.0568108 L59.606186,39.0568108 Z" id="Fill-11" fill="#274971"></path>
                                    <path d="M24.3038605,47.5544324 C24.3038605,48.9727568 23.1588372,50.122 21.7457209,50.122 C20.3331163,50.122 19.1875814,48.9727568 19.1875814,47.5544324 C19.1875814,46.1366216 20.3331163,44.9868649 21.7457209,44.9868649 C23.1588372,44.9868649 24.3038605,46.1366216 24.3038605,47.5544324" id="Fill-12" fill="#274971"></path>
                                    <path d="M46.8154884,47.5544324 C46.8154884,48.9727568 45.6704651,50.122 44.2573488,50.122 C42.8447442,50.122 41.6992093,48.9727568 41.6992093,47.5544324 C41.6992093,46.1366216 42.8447442,44.9868649 44.2573488,44.9868649 C45.6704651,44.9868649 46.8154884,46.1366216 46.8154884,47.5544324" id="Fill-13" fill="#274971"></path>
                                    <path d="M33.0015349,68.094973 C35.9833023,68.094973 38.4687907,65.9613243 39.0249302,63.1323784 C39.1477209,62.5084595 38.6483721,61.9328108 38.0149767,61.9328108 L27.9886047,61.9328108 C27.3546977,61.9328108 26.8558605,62.5084595 26.9781395,63.1323784 C27.5342791,65.9613243 30.0197674,68.094973 33.0015349,68.094973" id="Fill-14" fill="#274971"></path>
                                    <path d="M32.309814,75.7874054 C32.5369767,75.8130811 32.7677209,75.8264324 33.0015349,75.8264324 C33.1688372,75.8264324 33.3346047,75.8197568 33.4983256,75.8064054 C33.2890698,75.8053784 33.0787907,75.8033243 32.8674884,75.7997297 C32.6802326,75.7966486 32.4950233,75.7925405 32.309814,75.7874054" id="Fill-15" fill="#A1A2A1"></path>
                                    <path d="M28.1272558,73.4118919 C29.1172558,74.706973 30.6081395,75.5963784 32.309814,75.7874054 C32.4950233,75.7925405 32.6802326,75.7966486 32.8674884,75.7997297 C33.0787907,75.8033243 33.2890698,75.8053784 33.4983256,75.8064054 C35.2097209,75.6687838 36.7231163,74.8271351 37.7504651,73.5700541 C36.4550233,73.6912432 35.1068837,73.7523514 33.7086047,73.7523514 C33.4420465,73.7523514 33.171907,73.7502973 32.9017674,73.7456757 C31.2471628,73.7179459 29.6529302,73.606 28.1272558,73.4118919" id="Fill-17" fill="#484F62"></path>
                                    <path d="M33.0015349,55.5852703 C30.1804186,55.5852703 27.8852558,53.2816486 27.8852558,50.4501351 C27.8852558,49.8832162 28.3431628,49.4231081 28.9085116,49.4231081 C29.4733488,49.4231081 29.9317674,49.8832162 29.9317674,50.4501351 C29.9317674,52.1493514 31.3085581,53.5312162 33.0015349,53.5312162 C34.694,53.5312162 36.0713023,52.1493514 36.0713023,50.4501351 C36.0713023,49.8832162 36.5292093,49.4231081 37.0945581,49.4231081 C37.6593953,49.4231081 38.117814,49.8832162 38.117814,50.4501351 C38.117814,53.2816486 35.8226512,55.5852703 33.0015349,55.5852703" id="Fill-18" fill="#274971"></path>
                                    <g id="Group-2" transform="translate(47.000000, 38.500000) rotate(-340.000000) translate(-47.000000, -38.500000) translate(40.000000, 35.000000)">
                                        <path d="M3.41683721,5.53105405 L10.8605116,5.45197297 C11.8494884,5.44118919 12.6425116,4.6282973 12.6322791,3.63567568 C12.6215349,2.64305405 11.8116279,1.84710811 10.8226512,1.85737838 L3.37846512,1.93645946 C2.39,1.94724324 1.59646512,2.76013514 1.6072093,3.75275676 C1.61744186,4.74537838 2.42786047,5.54183784 3.41683721,5.53105405" id="Fill-21" fill="#3572B0"></path>
                                        <path d="M3.39739535,6.55808108 C1.85944186,6.55808108 0.600325581,5.31127027 0.583953488,3.76405405 C0.575767442,3.00918919 0.861255814,2.29745946 1.38669767,1.75827027 C1.91265116,1.21908108 2.61613953,0.917648649 3.36772093,0.909432432 L10.8113953,0.830351351 C11.5491628,0.833432432 12.2726047,1.10867568 12.809814,1.63656757 C13.3470233,2.16394595 13.6473488,2.87054054 13.6555349,3.62489189 C13.6632093,4.37924324 13.3782326,5.09148649 12.8517674,5.63067568 C12.3263256,6.16935135 11.6228372,6.47078378 10.8712558,6.47848649 L3.4275814,6.55808108 L3.41683721,5.53105405 L3.4275814,6.55808108 L3.39739535,6.55808108 L3.39739535,6.55808108 Z M10.842093,2.88440541 L10.8333953,2.88440541 L3.38972093,2.964 C2.96660465,2.96810811 2.62586047,3.3172973 2.63046512,3.74197297 C2.63506977,4.16356757 2.97837209,4.50402703 3.39790698,4.50402703 L3.4055814,4.50402703 L10.8492558,4.42443243 C11.0549302,4.42237838 11.2467907,4.34021622 11.3900465,4.19335135 C11.5333023,4.04648649 11.6110698,3.85237838 11.6090233,3.64697297 C11.6069767,3.44054054 11.5251163,3.24797297 11.3787907,3.10418919 C11.2334884,2.96245946 11.0436744,2.88440541 10.842093,2.88440541 L10.842093,2.88440541 Z" id="Fill-22" fill="#274971"></path>
                                    </g>
                                    <g id="Group-3" transform="translate(19.000000, 38.500000) rotate(-20.000000) translate(-19.000000, -38.500000) translate(12.000000, 35.000000)">
                                        <path d="M3.51274419,5.53105405 L10.9569302,5.45197297 C11.945907,5.44118919 12.7389302,4.6282973 12.728186,3.63567568 C12.7179535,2.64305405 11.9075349,1.84710811 10.9190698,1.85737838 L3.47488372,1.93645946 C2.48590698,1.94724324 1.69288372,2.76013514 1.70311628,3.75275676 C1.71386047,4.74537838 2.52427907,5.54183784 3.51274419,5.53105405" id="Fill-23" fill="#3572B0"></path>
                                        <path d="M3.49330233,6.55808108 C2.75297674,6.55808108 2.05562791,6.27256757 1.5255814,5.75186486 C0.988372093,5.22448649 0.688046512,4.51840541 0.679860465,3.76405405 C0.663488372,2.20656757 1.91288372,0.926378378 3.46413953,0.909432432 L10.907814,0.830351351 C11.6691163,0.830351351 12.3685116,1.10867568 12.9062326,1.63656757 C13.4434419,2.16394595 13.7437674,2.87054054 13.7514419,3.62489189 C13.7596279,4.37924324 13.4741395,5.09148649 12.9486977,5.63067568 C12.4227442,6.16935135 11.7192558,6.47078378 10.9676744,6.47848649 L3.524,6.55808108 L3.49330233,6.55808108 L3.49330233,6.55808108 Z M10.9374884,2.88440541 L10.929814,2.88440541 L3.48613953,2.964 C3.06302326,2.96810811 2.72227907,3.3172973 2.72637209,3.74197297 C2.7284186,3.94789189 2.81027907,4.14045946 2.95711628,4.28424324 C3.10293023,4.42802703 3.29274419,4.48708108 3.502,4.50402703 L10.9456744,4.42443243 C11.1508372,4.42237838 11.3426977,4.34021622 11.4864651,4.19335135 C11.6297209,4.04648649 11.7069767,3.85237838 11.7049302,3.64697297 C11.7003256,3.22435135 11.3575349,2.88440541 10.9374884,2.88440541 L10.9374884,2.88440541 Z" id="Fill-24" fill="#274971"></path>
                                    </g>
                                </g>
                            </g>
                        </g>
                    </g>
                </g>
            </g>
        </g>
    </g>
</svg>