<?xml version="1.0" encoding="UTF-8" standalone="no"?>
<svg width="54px" height="64px" viewBox="0 0 54 64" version="1.1" xmlns="http://www.w3.org/2000/svg" xmlns:xlink="http://www.w3.org/1999/xlink" xmlns:sketch="http://www.bohemiancoding.com/sketch/ns">
    <!-- Generator: Sketch 3.4 (15588) - http://www.bohemiancoding.com/sketch -->
    <title>bitbucket logo</title>
    <desc>Created with Sketch.</desc>
    <defs></defs>
    <g id="Flow-1-Bitbucket-adds-JIRA" stroke="none" stroke-width="1" fill="none" fill-rule="evenodd" sketch:type="MSPage">
        <g id="Easy-Connect-1.6.3-Alt-Error" sketch:type="MSArtboardGroup" transform="translate(-676.000000, -271.000000)" fill="#1E4F83">
            <g id="diagram-copy-2" sketch:type="MSLayerGroup" transform="translate(548.000000, 237.000000)">
                <g id="bitbucket-logo" transform="translate(128.000000, 34.000000)" sketch:type="MSShapeGroup">
                    <path d="M45.2177072,45.0467128 C45.2177072,45.0467128 38.6340384,50.2598037 26.7345728,50.2602407 C14.8355442,50.2598037 8.25187537,45.0467128 8.25187537,45.0467128 C8.25187537,45.0467128 7.92583867,44.7586991 7.51982245,44.7586991 C7.03426376,44.7586991 6.57405378,45.0851729 6.57405378,45.8045514 C6.57405378,45.8805975 6.58148357,45.9566436 6.59503201,46.0309415 C7.61684678,51.4997047 8.36375928,55.3802407 8.49443619,55.9711276 C9.38688519,59.9941408 17.2563449,63.029866 26.7341357,63.030303 C36.2128007,63.029866 44.0826974,59.9941408 44.9747093,55.9711276 C45.1058233,55.3802407 45.8522988,51.4997047 46.8741135,46.0309415 C46.888099,45.9566436 46.8955288,45.8805975 46.8955288,45.8045514 C46.8955288,45.0851729 46.4353188,44.7586991 45.9497601,44.7586991 C45.5433069,44.7586991 45.2177072,45.0467128 45.2177072,45.0467128 Z" id="Fill-14"></path>
                    <path d="M26.7302023,12.4268715 C17.2742638,12.4115749 9.61109006,10.768717 9.61458643,8.7561178 C9.61764575,6.74395561 17.286064,5.12557234 26.7420026,5.14086897 C36.1979411,5.1561656 43.8606778,6.79858643 43.8576184,8.81162271 C43.8541221,10.8237849 36.1857038,12.4417311 26.7302023,12.4268715 L26.7302023,12.4268715 Z M26.7345728,39.0692275 C22.0411302,39.0692275 18.2362032,35.2638634 18.2362032,30.5708579 C18.2362032,25.8765412 22.0411302,22.0720512 26.7345728,22.0720512 C31.4284524,22.0720512 35.2333794,25.8765412 35.2333794,30.5708579 C35.2333794,35.2638634 31.4284524,39.0692275 26.7345728,39.0692275 L26.7345728,39.0692275 Z M26.7350098,0.815856594 L26.7350098,0.816730687 L26.7345728,0.815856594 C12.0174682,0.815856594 0,4.77243875 0,9.6852787 C0,10.9793735 3.20923261,29.5337465 4.48234913,36.8918617 C5.05356893,40.191563 13.5812207,45.030105 26.7280171,45.030105 L26.7415655,44.9907708 L26.7415655,45.030105 C39.8883619,45.030105 48.4160137,40.191563 48.9867964,36.8918617 C50.2599129,29.5337465 53.4695826,10.9793735 53.4695826,9.6852787 C53.4695826,4.77243875 41.4521144,0.815856594 26.7350098,0.815856594 L26.7350098,0.815856594 Z" id="Fill-13-Copy"></path>
                    <path d="M30.9857243,31.060787 C30.9857243,33.4129714 29.0788903,35.3198054 26.7262689,35.3198054 C24.3740845,35.3198054 22.4672505,33.4129714 22.4672505,31.060787 C22.4672505,28.7081656 24.3740845,26.8017687 26.7262689,26.8017687 C29.0788903,26.8017687 30.9857243,28.7081656 30.9857243,31.060787" id="Fill-15"></path>
                </g>
            </g>
        </g>
    </g>
</svg>